<?xml version="1.0" standalone="no"?>
<!DOCTYPE svg PUBLIC "-//W3C//DTD SVG 1.1//EN" "http://www.w3.org/Graphics/SVG/1.1/DTD/svg11.dtd">
<!--Generator: Xara Xtreme (www.xara.com), SVG filter version: 1.0.0.13-->
<svg stroke-width="0.501" stroke-linejoin="bevel" fill-rule="evenodd" xmlns:xlink="http://www.w3.org/1999/xlink" xmlns="http://www.w3.org/2000/svg" version="1.1" overflow="visible" width="1008pt" height="2334pt" viewBox="0 0 1008 2334">
 <defs>
  <marker id="DefaultArrow2" markerUnits="strokeWidth" viewBox="0 0 1 1" markerWidth="1" markerHeight="1" overflow="visible" orient="auto">
   <!-- REF_ARROW_STRAIGHT (-2) -->
   <g transform="scale(0.0092592592)">
    <!-- 1/108 -->
    <path d="M -9 54 L -9 -54 L 117 0 z"/>
   </g>
  </marker>
  <marker id="DefaultArrow3" markerUnits="strokeWidth" viewBox="0 0 1 1" markerWidth="1" markerHeight="1" overflow="visible" orient="auto">
   <!-- REF_ARROW_ANGLED -->
   <g transform="scale(0.0092592592)">
    <path d="M -27 54 L -9 0 L -27 -54 L 135 0 z"/>
   </g>
  </marker>
  <marker id="DefaultArrow4" markerUnits="strokeWidth" viewBox="0 0 1 1" markerWidth="1" markerHeight="1" overflow="visible" orient="auto">
   <!-- REF_ARROW_ROUNDED -->
   <g transform="scale(0.0092592592)">
    <path d="M -9,0 L -9,-45 C -9,-51.708 2.808,-56.580 9,-54 L 117,-9 C 120.916,-7.369 126.000,-4.242 126,0 C 126,4.242 120.916,7.369 117,9 L 9,54 C 2.808,56.580 -9,51.708 -9,45 z"/>
   </g>
  </marker>
  <marker id="DefaultArrow5" markerUnits="strokeWidth" viewBox="0 0 1 1" markerWidth="1" markerHeight="1" overflow="visible" orient="auto">
   <!-- REF_ARROW_SPOT -->
   <g transform="scale(0.0092592592)">
    <path d="M -54, 0 C -54,29.807 -29.807,54 0,54 C 29.807,54 54,29.807 54,0 C 54,-29.807 29.807,-54 0,-54 C -29.807,-54 -54,-29.807 -54,0 z"/>
   </g>
  </marker>
  <marker id="DefaultArrow6" markerUnits="strokeWidth" viewBox="0 0 1 1" markerWidth="1" markerHeight="1" overflow="visible" orient="auto">
   <!-- REF_ARROW_DIAMOND -->
   <g transform="scale(0.0092592592)">
    <path d="M -63,0 L 0,63 L 63,0 L 0,-63 z"/>
   </g>
  </marker>
  <marker id="DefaultArrow7" markerUnits="strokeWidth" viewBox="0 0 1 1" markerWidth="1" markerHeight="1" overflow="visible" orient="auto">
   <!-- REF_ARROW_FEATHER -->
   <g transform="scale(0.0092592592)">
    <path d="M 18,-54 L 108,-54 L 63,0 L 108,54 L 18, 54 L -36,0 z"/>
   </g>
  </marker>
  <marker id="DefaultArrow8" markerUnits="strokeWidth" viewBox="0 0 1 1" markerWidth="1" markerHeight="1" overflow="visible" orient="auto">
   <!-- REF_ARROW_FEATHER2 -->
   <g transform="scale(0.0092592592)">
    <path d="M -36,0 L 18,-54 L 54,-54 L 18,-18 L 27,-18 L 63,-54 L 99,-54 L 63,-18 L 72,-18 L 108,-54 L 144,-54 L 90,0 L 144,54 L 108,54 L 72,18 L 63,18 L 99,54 L 63,54 L 27,18 L 18,18 L 54,54 L 18,54 z"/>
   </g>
  </marker>
  <marker id="DefaultArrow9" markerUnits="strokeWidth" viewBox="0 0 1 1" markerWidth="1" markerHeight="1" overflow="visible" orient="auto">
   <!-- REF_ARROW_HOLLOWDIAMOND -->
   <g transform="scale(0.0092592592)">
    <path d="M 0,45 L -45,0 L 0, -45 L 45, 0 z M 0, 63 L-63, 0 L 0, -63 L 63, 0 z"/>
   </g>
  </marker>
  <filter id="StainedFilter">
   <feBlend mode="multiply" in2="BackgroundImage" in="SourceGraphic" result="blend"/>
   <feComposite in="blend" in2="SourceAlpha" operator="in" result="comp"/>
  </filter>
  <filter id="BleachFilter">
   <feBlend mode="screen" in2="BackgroundImage" in="SourceGraphic" result="blend"/>
   <feComposite in="blend" in2="SourceAlpha" operator="in" result="comp"/>
  </filter>
  <filter id="InvertTransparencyBitmapFilter">
   <feComponentTransfer>
    <feFuncR type="gamma" amplitude="1.055" exponent=".416666666" offset="-0.055"/>
    <feFuncG type="gamma" amplitude="1.055" exponent=".416666666" offset="-0.055"/>
    <feFuncB type="gamma" amplitude="1.055" exponent=".416666666" offset="-0.055"/>
   </feComponentTransfer>
   <feComponentTransfer>
    <feFuncR type="linear" slope="-1" intercept="1"/>
    <feFuncG type="linear" slope="-1" intercept="1"/>
    <feFuncB type="linear" slope="-1" intercept="1"/>
    <feFuncA type="linear" slope="1" intercept="0"/>
   </feComponentTransfer>
   <feComponentTransfer>
    <feFuncR type="gamma" amplitude="1" exponent="2.4" offset="0"/>
    <feFuncG type="gamma" amplitude="1" exponent="2.4" offset="0"/>
    <feFuncB type="gamma" amplitude="1" exponent="2.4" offset="0"/>
   </feComponentTransfer>
  </filter>
  <linearGradient id="LinearGradient" gradientUnits="userSpaceOnUse" x1="0" y1="0" x2="-3.632" y2="-24.61" gradientTransform="translate(877.087 2052.11)">
   <stop offset="0" stop-color="#d4f67e"/>
   <stop offset="1" stop-color="#89b605"/>
  </linearGradient>
  <linearGradient id="LinearGradient_1" gradientUnits="userSpaceOnUse" x1="0" y1="0" x2="13.242" y2="-34.687" gradientTransform="translate(859.861 2060.43)">
   <stop offset="0" stop-color="#ffffff"/>
   <stop offset="1" stop-color="#000000"/>
  </linearGradient>
 </defs>
 <g id="Document" fill="none" stroke="black" font-family="Times New Roman" font-size="16" transform="scale(1 -1)">
  <g id="Spread" transform="translate(0 -2334)">
   <g id="icons">
    <g id="Group" stroke="none">
     <path d="M 855.75,2025 L 879.749,2025 L 879.749,2049 L 855.75,2049 L 855.75,2025 Z" stroke-width="0.403" stroke-opacity="0.372549" stroke-linejoin="miter" marker-start="none" marker-end="none" stroke-miterlimit="79.8403193612775"/>
     <path d="M 870.531,2046.53 L 878.781,2038.24 C 878.921,2038.1 878.999,2037.91 878.999,2037.71 L 878.999,2037 C 878.999,2036.8 878.92,2036.61 878.78,2036.47 L 870.53,2028.22 C 870.389,2028.08 870.198,2028 869.999,2028 L 869.249,2028 C 868.836,2028 868.499,2028.34 868.499,2028.75 L 868.499,2033.25 L 858.749,2033.25 C 858.336,2033.25 857.999,2033.59 857.999,2034 L 857.999,2040.75 C 857.999,2041.16 858.336,2041.5 858.749,2041.5 L 868.499,2041.5 L 868.499,2046 C 868.499,2046.41 868.836,2046.75 869.249,2046.75 L 869.999,2046.75 C 870.199,2046.75 870.39,2046.67 870.531,2046.53 Z" stroke-opacity="0.337255" stroke-width="0.5" fill="#000000" fill-rule="evenodd" marker-start="none" marker-end="none" stroke-miterlimit="79.8403193612775" fill-opacity="0.337255"/>
     <path d="M 869.781,2045.78 L 878.031,2037.49 C 878.171,2037.35 878.249,2037.16 878.249,2036.96 L 878.249,2036.25 C 878.249,2036.05 878.17,2035.86 878.03,2035.72 L 869.78,2027.47 C 869.639,2027.33 869.448,2027.25 869.249,2027.25 L 868.499,2027.25 C 868.086,2027.25 867.749,2027.59 867.749,2028 L 867.749,2032.5 L 857.999,2032.5 C 857.586,2032.5 857.249,2032.84 857.249,2033.25 L 857.249,2040 C 857.249,2040.41 857.586,2040.75 857.999,2040.75 L 867.749,2040.75 L 867.749,2045.25 C 867.749,2045.66 868.086,2046 868.499,2046 L 869.249,2046 C 869.449,2046 869.64,2045.92 869.781,2045.78 Z" stroke-opacity="0.337255" stroke-width="0.5" fill="#000000" fill-rule="evenodd" marker-start="none" marker-end="none" stroke-miterlimit="79.8403193612775" fill-opacity="0.337255"/>
     <path d="M 878.249,2037 L 869.999,2028.75 L 869.249,2028.75 L 869.249,2034 L 858.749,2034 L 858.749,2040.75 L 869.249,2040.75 L 869.249,2046 L 869.999,2046 L 878.249,2037.71 L 878.249,2037 Z" stroke-linejoin="miter" marker-start="none" marker-end="none" fill="url(#LinearGradient)"/>
     <mask id="TranspMask">
      <rect x="-10%" y="-10%" width="120%" height="120%" fill="url(#LinearGradient_1)" stroke="none"/>
     </mask>
     <path d="M 858.749,2035.23 L 858.749,2040.75 L 869.249,2040.75 L 869.249,2046 L 869.999,2046 L 876.318,2039.65 L 858.749,2035.23 Z" fill="#ffffff" stroke-linejoin="miter" marker-start="none" marker-end="none" mask="url(#TranspMask)"/>
     <path d="M 858.75,2040.75 L 858.75,2040 L 869.25,2040 L 869.25,2040.75 L 858.75,2040.75 Z" stroke-linejoin="miter" fill="#ffffff" marker-start="none" marker-end="none"/>
     <path d="M 870,2046 L 878.25,2037.75 L 878.25,2037 L 877.5,2037 L 869.251,2045.25 L 869.251,2046 L 870,2046 Z" fill="#ffffff" stroke-linejoin="miter" marker-start="none" marker-end="none"/>
    </g>
   </g>
  </g>
 </g>
</svg>
