<?xml version="1.0" standalone="no"?>
<!DOCTYPE svg PUBLIC "-//W3C//DTD SVG 1.1//EN" "http://www.w3.org/Graphics/SVG/1.1/DTD/svg11.dtd">
<!--Generator: Xara Xtreme (www.xara.com), SVG filter version: 1.0.0.13-->
<svg stroke-width="0.501" stroke-linejoin="bevel" fill-rule="evenodd" xmlns:xlink="http://www.w3.org/1999/xlink" xmlns="http://www.w3.org/2000/svg" version="1.1" overflow="visible" width="996.75pt" height="933.75pt" viewBox="0 0 996.75 933.75">
 <defs>
  <marker id="DefaultArrow2" markerUnits="strokeWidth" viewBox="0 0 1 1" markerWidth="1" markerHeight="1" overflow="visible" orient="auto">
   <!-- REF_ARROW_STRAIGHT (-2) -->
   <g transform="scale(0.0092592592)">
    <!-- 1/108 -->
    <path d="M -9 54 L -9 -54 L 117 0 z"/>
   </g>
  </marker>
  <marker id="DefaultArrow3" markerUnits="strokeWidth" viewBox="0 0 1 1" markerWidth="1" markerHeight="1" overflow="visible" orient="auto">
   <!-- REF_ARROW_ANGLED -->
   <g transform="scale(0.0092592592)">
    <path d="M -27 54 L -9 0 L -27 -54 L 135 0 z"/>
   </g>
  </marker>
  <marker id="DefaultArrow4" markerUnits="strokeWidth" viewBox="0 0 1 1" markerWidth="1" markerHeight="1" overflow="visible" orient="auto">
   <!-- REF_ARROW_ROUNDED -->
   <g transform="scale(0.0092592592)">
    <path d="M -9,0 L -9,-45 C -9,-51.708 2.808,-56.580 9,-54 L 117,-9 C 120.916,-7.369 126.000,-4.242 126,0 C 126,4.242 120.916,7.369 117,9 L 9,54 C 2.808,56.580 -9,51.708 -9,45 z"/>
   </g>
  </marker>
  <marker id="DefaultArrow5" markerUnits="strokeWidth" viewBox="0 0 1 1" markerWidth="1" markerHeight="1" overflow="visible" orient="auto">
   <!-- REF_ARROW_SPOT -->
   <g transform="scale(0.0092592592)">
    <path d="M -54, 0 C -54,29.807 -29.807,54 0,54 C 29.807,54 54,29.807 54,0 C 54,-29.807 29.807,-54 0,-54 C -29.807,-54 -54,-29.807 -54,0 z"/>
   </g>
  </marker>
  <marker id="DefaultArrow6" markerUnits="strokeWidth" viewBox="0 0 1 1" markerWidth="1" markerHeight="1" overflow="visible" orient="auto">
   <!-- REF_ARROW_DIAMOND -->
   <g transform="scale(0.0092592592)">
    <path d="M -63,0 L 0,63 L 63,0 L 0,-63 z"/>
   </g>
  </marker>
  <marker id="DefaultArrow7" markerUnits="strokeWidth" viewBox="0 0 1 1" markerWidth="1" markerHeight="1" overflow="visible" orient="auto">
   <!-- REF_ARROW_FEATHER -->
   <g transform="scale(0.0092592592)">
    <path d="M 18,-54 L 108,-54 L 63,0 L 108,54 L 18, 54 L -36,0 z"/>
   </g>
  </marker>
  <marker id="DefaultArrow8" markerUnits="strokeWidth" viewBox="0 0 1 1" markerWidth="1" markerHeight="1" overflow="visible" orient="auto">
   <!-- REF_ARROW_FEATHER2 -->
   <g transform="scale(0.0092592592)">
    <path d="M -36,0 L 18,-54 L 54,-54 L 18,-18 L 27,-18 L 63,-54 L 99,-54 L 63,-18 L 72,-18 L 108,-54 L 144,-54 L 90,0 L 144,54 L 108,54 L 72,18 L 63,18 L 99,54 L 63,54 L 27,18 L 18,18 L 54,54 L 18,54 z"/>
   </g>
  </marker>
  <marker id="DefaultArrow9" markerUnits="strokeWidth" viewBox="0 0 1 1" markerWidth="1" markerHeight="1" overflow="visible" orient="auto">
   <!-- REF_ARROW_HOLLOWDIAMOND -->
   <g transform="scale(0.0092592592)">
    <path d="M 0,45 L -45,0 L 0, -45 L 45, 0 z M 0, 63 L-63, 0 L 0, -63 L 63, 0 z"/>
   </g>
  </marker>
  <filter id="StainedFilter">
   <feBlend mode="multiply" in2="BackgroundImage" in="SourceGraphic" result="blend"/>
   <feComposite in="blend" in2="SourceAlpha" operator="in" result="comp"/>
  </filter>
  <filter id="BleachFilter">
   <feBlend mode="screen" in2="BackgroundImage" in="SourceGraphic" result="blend"/>
   <feComposite in="blend" in2="SourceAlpha" operator="in" result="comp"/>
  </filter>
  <filter id="InvertTransparencyBitmapFilter">
   <feComponentTransfer>
    <feFuncR type="gamma" amplitude="1.055" exponent=".416666666" offset="-0.055"/>
    <feFuncG type="gamma" amplitude="1.055" exponent=".416666666" offset="-0.055"/>
    <feFuncB type="gamma" amplitude="1.055" exponent=".416666666" offset="-0.055"/>
   </feComponentTransfer>
   <feComponentTransfer>
    <feFuncR type="linear" slope="-1" intercept="1"/>
    <feFuncG type="linear" slope="-1" intercept="1"/>
    <feFuncB type="linear" slope="-1" intercept="1"/>
    <feFuncA type="linear" slope="1" intercept="0"/>
   </feComponentTransfer>
   <feComponentTransfer>
    <feFuncR type="gamma" amplitude="1" exponent="2.4" offset="0"/>
    <feFuncG type="gamma" amplitude="1" exponent="2.4" offset="0"/>
    <feFuncB type="gamma" amplitude="1" exponent="2.4" offset="0"/>
   </feComponentTransfer>
  </filter>
  <linearGradient id="LinearGradient" gradientUnits="userSpaceOnUse" x1="0" y1="0" x2="7.5" y2="18" gradientTransform="translate(539.25 -91.5)">
   <stop offset="0" stop-color="#459ddf"/>
   <stop offset="1" stop-color="#abdbff"/>
  </linearGradient>
  <linearGradient id="LinearGradient_1" gradientUnits="userSpaceOnUse" x1="0" y1="0" x2="-3" y2="-6" gradientTransform="translate(542.25 -85.5)">
   <stop offset="0" stop-color="#6cb5eb"/>
   <stop offset="1" stop-color="#52e6ff"/>
  </linearGradient>
  <linearGradient id="LinearGradient_2" gradientUnits="userSpaceOnUse" x1="0" y1="0" x2="2.462" y2="7.663" gradientTransform="translate(544.288 -84.913)">
   <stop offset="0" stop-color="#58b3f7"/>
   <stop offset="1" stop-color="#ffffff"/>
  </linearGradient>
  <linearGradient id="LinearGradient_3" gradientUnits="userSpaceOnUse" x1="0" y1="0" x2="-6" y2="-17.25" gradientTransform="translate(548.25 -69.75)">
   <stop offset="0" stop-color="#ffffff"/>
   <stop offset="1" stop-color="#000000"/>
  </linearGradient>
  <linearGradient id="LinearGradient_4" gradientUnits="userSpaceOnUse" x1="0" y1="0" x2="1.105" y2="7.032" gradientTransform="translate(543.75 -91.5)">
   <stop offset="0" stop-color="#3775a4"/>
   <stop offset="1" stop-color="#5aa1d5"/>
  </linearGradient>
  <linearGradient id="LinearGradient_5" gradientUnits="userSpaceOnUse" x1="0" y1="0" x2="1.781" y2="9.657" gradientTransform="translate(541.194 -91.991)">
   <stop offset="0" stop-color="#ffffff"/>
   <stop offset="1" stop-color="#000000"/>
  </linearGradient>
  <linearGradient id="LinearGradient_6" gradientUnits="userSpaceOnUse" x1="0" y1="0" x2="-1.41" y2="-12.78" gradientTransform="translate(548.384 -72.494)">
   <stop offset="0" stop-color="#ffffff"/>
   <stop offset="1" stop-color="#000000"/>
  </linearGradient>
  <linearGradient id="LinearGradient_7" gradientUnits="userSpaceOnUse" x1="0" y1="0" x2="-3" y2="-11.25" gradientTransform="translate(547.5 -77.929)">
   <stop offset="0" stop-color="#ffffff"/>
   <stop offset="1" stop-color="#c2dbed"/>
  </linearGradient>
  <linearGradient id="LinearGradient_8" gradientUnits="userSpaceOnUse" x1="0" y1="0" x2="-15.393" y2="-32.496" gradientTransform="translate(146.674 -69.266)">
   <stop offset="0" stop-color="#8b99ab"/>
   <stop offset="1" stop-color="#000000"/>
  </linearGradient>
 </defs>
 <g id="Document" fill="none" stroke="black" font-family="Times New Roman" font-size="16" transform="scale(1 -1)">
  <g id="Spread" transform="translate(0 -933.75)">
   <g id="icons">
    <g id="Group" stroke="none">
     <rect x="531.75" y="-94.499" width="24" height="23.999" stroke-width="0.5" stroke-opacity="0.427451" stroke-linejoin="miter" stroke-miterlimit="79.8403193612775"/>
     <ellipse rx="11.624" ry="11.625" transform="translate(543.375 -82.875) rotate(90)" stroke-opacity="0.298039" fill="#000000" stroke-width="0.154" stroke-linejoin="round" stroke-linecap="round" stroke-miterlimit="79.8403193612775" fill-opacity="0.298039"/>
     <ellipse rx="11.624" ry="11.625" transform="translate(544.125 -82.125) rotate(90)" stroke-opacity="0.298039" fill="#000000" stroke-width="0.154" stroke-linejoin="round" stroke-linecap="round" stroke-miterlimit="79.8403193612775" fill-opacity="0.298039"/>
     <ellipse cx="544.125" cy="-82.125" rx="10.876" ry="10.875" stroke-width="0.144" stroke-linejoin="round" stroke-linecap="round" stroke-miterlimit="79.8403193612775" fill="url(#LinearGradient)"/>
     <path d="M 534.75,-83.25 C 533.589,-86.917 538.441,-92.331 543.75,-92.25 C 546.406,-92.25 548.856,-91.433 550.134,-90.271 L 550.809,-88.021 L 548.943,-87.693 L 544.968,-86.718 L 539.905,-84.58 L 536.38,-82.893 L 535.518,-82.93 L 534.75,-83.25 Z" stroke-width="0.144" stroke-linecap="round" stroke-linejoin="round" marker-start="none" marker-end="none" stroke-miterlimit="79.8403193612775" fill="url(#LinearGradient_1)"/>
     <path d="M 533.25,-81.75 L 534.434,-81.314 C 535.094,-76.574 538.502,-73.088 544.004,-72.644 C 548.873,-72.644 553.462,-76.434 553.698,-82.628 C 553.643,-83.124 554.789,-83.545 554.988,-82.37 C 554.962,-76.546 550.886,-71.566 544.5,-71.25 C 539.7,-70.95 533.636,-74.706 533.25,-81.75 Z" stroke-width="0.114" stroke-linecap="round" stroke-linejoin="round" marker-start="none" marker-end="none" stroke-miterlimit="79.8403193612775" fill="url(#LinearGradient_2)"/>
     <mask id="TranspMask">
      <rect x="-10%" y="-10%" width="120%" height="120%" fill="url(#LinearGradient_3)" stroke="none"/>
     </mask>
     <path d="M 534.75,-78 C 540.54,-82.143 547.04,-84.391 554.25,-84.75 C 554.898,-79.283 553.112,-75.048 547.5,-72.75 C 541.516,-70.644 536.343,-73.668 534.75,-78 Z" fill="#ffffff" stroke-linejoin="miter" marker-start="none" marker-end="none" mask="url(#TranspMask)"/>
     <mask id="TranspMask_1">
      <rect x="-10%" y="-10%" width="120%" height="120%" fill="url(#LinearGradient_5)" stroke="none"/>
     </mask>
     <path d="M 542.153,-92.822 L 537,-83.25 L 538.5,-83.25 L 543.746,-92.994 C 543.204,-92.975 542.672,-92.917 542.153,-92.822 Z M 545.22,-92.946 L 540,-83.25 L 541.5,-83.25 L 546.597,-92.718 C 546.148,-92.822 545.688,-92.899 545.22,-92.946 Z M 538.358,-91.346 L 534,-83.25 L 535.5,-83.25 L 540.395,-92.344 C 539.678,-92.081 538.996,-91.746 538.358,-91.346 Z M 547.888,-92.331 L 543,-83.25 L 544.5,-83.25 L 549.101,-91.796 C 548.71,-91.998 548.305,-92.177 547.888,-92.331 Z" stroke-linejoin="miter" marker-start="none" marker-end="none" mask="url(#TranspMask_1)" fill="url(#LinearGradient_4)"/>
     <mask id="TranspMask_2">
      <rect x="-10%" y="-10%" width="120%" height="120%" fill="url(#LinearGradient_6)" stroke="none"/>
     </mask>
     <path d="M 551.25,-81.75 L 546,-72 L 547.5,-72 L 552.75,-81.75 C 554.908,-86.48 553.623,-85.927 551.25,-81.75 Z M 548.25,-81.75 L 543,-72 L 544.5,-72 L 549.75,-81.75 C 552.108,-86.902 550.395,-84.716 548.25,-81.75 Z M 542.25,-81.75 L 537.761,-73.413 L 538.864,-72.675 L 543.75,-81.75 L 542.25,-81.75 Z M 545.25,-81.75 L 540.073,-72.134 L 541.5,-72 L 546.75,-81.75 L 545.25,-81.75 Z" fill="#ffffff" stroke-linejoin="miter" marker-start="none" marker-end="none" mask="url(#TranspMask_2)"/>
     <path d="M 547.525,-86.545 L 546.926,-83.058 C 546.894,-82.87 546.979,-82.609 547.115,-82.476 L 550.556,-80.558 C 550.873,-79.895 550.655,-79.339 550.141,-79.265 L 546.806,-78.704 C 546.617,-78.677 546.395,-78.516 546.311,-78.345 L 544.745,-75.173 C 544.515,-74.707 543.779,-74.707 543.549,-75.173 L 541.983,-78.345 C 541.899,-78.516 541.676,-78.678 541.488,-78.705 L 538.182,-79.266 C 537.668,-79.34 537.465,-80.008 537.789,-80.578 L 541.208,-82.477 C 541.344,-82.609 541.43,-82.871 541.398,-83.059 L 540.799,-86.546 C 540.712,-87.058 541.015,-87.278 541.474,-87.036 L 543.856,-85.389 C 544.024,-85.301 544.299,-85.301 544.468,-85.389 L 546.85,-87.035 C 547.31,-87.277 547.612,-87.057 547.525,-86.545 Z" fill="#7db7e2" stroke-linejoin="miter" marker-start="none" marker-end="none"/>
     <path d="M 548.274,-87.296 L 547.675,-83.809 C 547.644,-83.621 547.729,-83.36 547.865,-83.227 L 550.399,-80.756 C 550.77,-80.394 550.655,-80.039 550.141,-79.965 L 546.638,-79.455 C 546.45,-79.428 546.227,-79.267 546.144,-79.096 L 544.578,-75.923 C 544.348,-75.458 543.974,-75.458 543.744,-75.924 L 542.179,-79.096 C 542.095,-79.267 541.872,-79.428 541.684,-79.455 L 538.181,-79.966 C 537.668,-80.04 537.552,-80.396 537.924,-80.758 L 540.458,-83.227 C 540.594,-83.36 540.679,-83.622 540.647,-83.809 L 540.049,-87.297 C 539.962,-87.809 540.264,-88.028 540.724,-87.787 L 543.855,-86.14 C 544.024,-86.051 544.299,-86.051 544.467,-86.14 L 547.6,-87.786 C 548.059,-88.028 548.362,-87.808 548.274,-87.296 Z" stroke-linejoin="miter" marker-start="none" marker-end="none" fill="url(#LinearGradient_7)"/>
    </g>
   </g>
  </g>
 </g>
</svg>
