<?xml version="1.0" standalone="no"?>
<!DOCTYPE svg PUBLIC "-//W3C//DTD SVG 1.1//EN" "http://www.w3.org/Graphics/SVG/1.1/DTD/svg11.dtd">
<!--Generator: Xara Xtreme (www.xara.com), SVG filter version: 1.0.0.13-->
<svg stroke-width="0.501" stroke-linejoin="bevel" fill-rule="evenodd" xmlns:xlink="http://www.w3.org/1999/xlink" xmlns="http://www.w3.org/2000/svg" version="1.1" overflow="visible" width="996.75pt" height="933.75pt" viewBox="0 0 996.75 933.75">
 <defs>
  <marker id="DefaultArrow2" markerUnits="strokeWidth" viewBox="0 0 1 1" markerWidth="1" markerHeight="1" overflow="visible" orient="auto">
   <!-- REF_ARROW_STRAIGHT (-2) -->
   <g transform="scale(0.0092592592)">
    <!-- 1/108 -->
    <path d="M -9 54 L -9 -54 L 117 0 z"/>
   </g>
  </marker>
  <marker id="DefaultArrow3" markerUnits="strokeWidth" viewBox="0 0 1 1" markerWidth="1" markerHeight="1" overflow="visible" orient="auto">
   <!-- REF_ARROW_ANGLED -->
   <g transform="scale(0.0092592592)">
    <path d="M -27 54 L -9 0 L -27 -54 L 135 0 z"/>
   </g>
  </marker>
  <marker id="DefaultArrow4" markerUnits="strokeWidth" viewBox="0 0 1 1" markerWidth="1" markerHeight="1" overflow="visible" orient="auto">
   <!-- REF_ARROW_ROUNDED -->
   <g transform="scale(0.0092592592)">
    <path d="M -9,0 L -9,-45 C -9,-51.708 2.808,-56.580 9,-54 L 117,-9 C 120.916,-7.369 126.000,-4.242 126,0 C 126,4.242 120.916,7.369 117,9 L 9,54 C 2.808,56.580 -9,51.708 -9,45 z"/>
   </g>
  </marker>
  <marker id="DefaultArrow5" markerUnits="strokeWidth" viewBox="0 0 1 1" markerWidth="1" markerHeight="1" overflow="visible" orient="auto">
   <!-- REF_ARROW_SPOT -->
   <g transform="scale(0.0092592592)">
    <path d="M -54, 0 C -54,29.807 -29.807,54 0,54 C 29.807,54 54,29.807 54,0 C 54,-29.807 29.807,-54 0,-54 C -29.807,-54 -54,-29.807 -54,0 z"/>
   </g>
  </marker>
  <marker id="DefaultArrow6" markerUnits="strokeWidth" viewBox="0 0 1 1" markerWidth="1" markerHeight="1" overflow="visible" orient="auto">
   <!-- REF_ARROW_DIAMOND -->
   <g transform="scale(0.0092592592)">
    <path d="M -63,0 L 0,63 L 63,0 L 0,-63 z"/>
   </g>
  </marker>
  <marker id="DefaultArrow7" markerUnits="strokeWidth" viewBox="0 0 1 1" markerWidth="1" markerHeight="1" overflow="visible" orient="auto">
   <!-- REF_ARROW_FEATHER -->
   <g transform="scale(0.0092592592)">
    <path d="M 18,-54 L 108,-54 L 63,0 L 108,54 L 18, 54 L -36,0 z"/>
   </g>
  </marker>
  <marker id="DefaultArrow8" markerUnits="strokeWidth" viewBox="0 0 1 1" markerWidth="1" markerHeight="1" overflow="visible" orient="auto">
   <!-- REF_ARROW_FEATHER2 -->
   <g transform="scale(0.0092592592)">
    <path d="M -36,0 L 18,-54 L 54,-54 L 18,-18 L 27,-18 L 63,-54 L 99,-54 L 63,-18 L 72,-18 L 108,-54 L 144,-54 L 90,0 L 144,54 L 108,54 L 72,18 L 63,18 L 99,54 L 63,54 L 27,18 L 18,18 L 54,54 L 18,54 z"/>
   </g>
  </marker>
  <marker id="DefaultArrow9" markerUnits="strokeWidth" viewBox="0 0 1 1" markerWidth="1" markerHeight="1" overflow="visible" orient="auto">
   <!-- REF_ARROW_HOLLOWDIAMOND -->
   <g transform="scale(0.0092592592)">
    <path d="M 0,45 L -45,0 L 0, -45 L 45, 0 z M 0, 63 L-63, 0 L 0, -63 L 63, 0 z"/>
   </g>
  </marker>
  <filter id="StainedFilter">
   <feBlend mode="multiply" in2="BackgroundImage" in="SourceGraphic" result="blend"/>
   <feComposite in="blend" in2="SourceAlpha" operator="in" result="comp"/>
  </filter>
  <filter id="BleachFilter">
   <feBlend mode="screen" in2="BackgroundImage" in="SourceGraphic" result="blend"/>
   <feComposite in="blend" in2="SourceAlpha" operator="in" result="comp"/>
  </filter>
  <filter id="InvertTransparencyBitmapFilter">
   <feComponentTransfer>
    <feFuncR type="gamma" amplitude="1.055" exponent=".416666666" offset="-0.055"/>
    <feFuncG type="gamma" amplitude="1.055" exponent=".416666666" offset="-0.055"/>
    <feFuncB type="gamma" amplitude="1.055" exponent=".416666666" offset="-0.055"/>
   </feComponentTransfer>
   <feComponentTransfer>
    <feFuncR type="linear" slope="-1" intercept="1"/>
    <feFuncG type="linear" slope="-1" intercept="1"/>
    <feFuncB type="linear" slope="-1" intercept="1"/>
    <feFuncA type="linear" slope="1" intercept="0"/>
   </feComponentTransfer>
   <feComponentTransfer>
    <feFuncR type="gamma" amplitude="1" exponent="2.4" offset="0"/>
    <feFuncG type="gamma" amplitude="1" exponent="2.4" offset="0"/>
    <feFuncB type="gamma" amplitude="1" exponent="2.4" offset="0"/>
   </feComponentTransfer>
  </filter>
  <linearGradient id="LinearGradient" gradientUnits="userSpaceOnUse" x1="0" y1="0" x2="7.5" y2="18" gradientTransform="translate(786.75 -91.5)">
   <stop offset="0" stop-color="#a873ff"/>
   <stop offset="1" stop-color="#a443ff"/>
  </linearGradient>
  <linearGradient id="LinearGradient_1" gradientUnits="userSpaceOnUse" x1="0" y1="0" x2="-3" y2="-6" gradientTransform="translate(789.75 -85.5)">
   <stop offset="0" stop-color="#a760ff"/>
   <stop offset="1" stop-color="#e6a0ff"/>
  </linearGradient>
  <linearGradient id="LinearGradient_2" gradientUnits="userSpaceOnUse" x1="0" y1="0" x2="2.462" y2="7.663" gradientTransform="translate(791.788 -84.913)">
   <stop offset="0" stop-color="#a65eff"/>
   <stop offset="1" stop-color="#ffffff"/>
  </linearGradient>
  <linearGradient id="LinearGradient_3" gradientUnits="userSpaceOnUse" x1="0" y1="0" x2="-6" y2="-17.25" gradientTransform="translate(795.75 -69.75)">
   <stop offset="0" stop-color="#ffffff"/>
   <stop offset="1" stop-color="#000000"/>
  </linearGradient>
  <linearGradient id="LinearGradient_4" gradientUnits="userSpaceOnUse" x1="0" y1="0" x2="1.105" y2="7.032" gradientTransform="translate(791.25 -91.5)">
   <stop offset="0" stop-color="#5f3593"/>
   <stop offset="1" stop-color="#a761ff"/>
  </linearGradient>
  <linearGradient id="LinearGradient_5" gradientUnits="userSpaceOnUse" x1="0" y1="0" x2="1.781" y2="9.657" gradientTransform="translate(788.694 -91.991)">
   <stop offset="0" stop-color="#ffffff"/>
   <stop offset="1" stop-color="#000000"/>
  </linearGradient>
  <linearGradient id="LinearGradient_6" gradientUnits="userSpaceOnUse" x1="0" y1="0" x2="-1.41" y2="-12.78" gradientTransform="translate(795.884 -72.494)">
   <stop offset="0" stop-color="#ffffff"/>
   <stop offset="1" stop-color="#000000"/>
  </linearGradient>
  <linearGradient id="LinearGradient_7" gradientUnits="userSpaceOnUse" x1="0" y1="0" x2="-3" y2="-11.25" gradientTransform="translate(795 -77.929)">
   <stop offset="0" stop-color="#ffffff"/>
   <stop offset="1" stop-color="#e1cbf5"/>
  </linearGradient>
  <linearGradient id="LinearGradient_8" gradientUnits="userSpaceOnUse" x1="0" y1="0" x2="-15.393" y2="-32.496" gradientTransform="translate(146.674 -69.266)">
   <stop offset="0" stop-color="#8b99ab"/>
   <stop offset="1" stop-color="#000000"/>
  </linearGradient>
 </defs>
 <g id="Document" fill="none" stroke="black" font-family="Times New Roman" font-size="16" transform="scale(1 -1)">
  <g id="Spread" transform="translate(0 -933.75)">
   <g id="icons">
    <g id="Group" stroke="none">
     <rect x="779.25" y="-94.499" width="24" height="23.999" stroke-width="0.5" stroke-opacity="0.427451" stroke-linejoin="miter" stroke-miterlimit="79.8403193612775"/>
     <ellipse rx="11.624" ry="11.625" transform="translate(790.875 -82.875) rotate(90)" stroke-opacity="0.298039" fill="#000000" stroke-width="0.154" stroke-linejoin="round" stroke-linecap="round" stroke-miterlimit="79.8403193612775" fill-opacity="0.298039"/>
     <ellipse rx="11.624" ry="11.625" transform="translate(791.625 -82.125) rotate(90)" stroke-opacity="0.298039" fill="#000000" stroke-width="0.154" stroke-linejoin="round" stroke-linecap="round" stroke-miterlimit="79.8403193612775" fill-opacity="0.298039"/>
     <ellipse cx="791.625" cy="-82.125" rx="10.876" ry="10.875" stroke-width="0.144" stroke-linejoin="round" stroke-linecap="round" stroke-miterlimit="79.8403193612775" fill="url(#LinearGradient)"/>
     <path d="M 782.25,-83.25 C 781.089,-86.917 785.941,-92.331 791.25,-92.25 C 793.906,-92.25 796.356,-91.433 797.634,-90.271 L 798.309,-88.021 L 796.443,-87.693 L 792.468,-86.718 L 787.405,-84.58 L 783.88,-82.893 L 783.018,-82.93 L 782.25,-83.25 Z" stroke-width="0.144" stroke-linecap="round" stroke-linejoin="round" marker-start="none" marker-end="none" stroke-miterlimit="79.8403193612775" fill="url(#LinearGradient_1)"/>
     <path d="M 780.75,-81.75 L 781.934,-81.314 C 782.594,-76.574 786.002,-73.088 791.504,-72.644 C 796.373,-72.644 800.962,-76.434 801.198,-82.628 C 801.143,-83.124 802.289,-83.545 802.488,-82.37 C 802.462,-76.546 798.386,-71.566 792,-71.25 C 787.2,-70.95 781.136,-74.706 780.75,-81.75 Z" stroke-width="0.114" stroke-linecap="round" stroke-linejoin="round" marker-start="none" marker-end="none" stroke-miterlimit="79.8403193612775" fill="url(#LinearGradient_2)"/>
     <mask id="TranspMask">
      <rect x="-10%" y="-10%" width="120%" height="120%" fill="url(#LinearGradient_3)" stroke="none"/>
     </mask>
     <path d="M 782.25,-78 C 788.04,-82.143 794.54,-84.391 801.75,-84.75 C 802.398,-79.283 800.612,-75.048 795,-72.75 C 789.016,-70.644 783.843,-73.668 782.25,-78 Z" fill="#ffffff" stroke-linejoin="miter" marker-start="none" marker-end="none" mask="url(#TranspMask)"/>
     <mask id="TranspMask_1">
      <rect x="-10%" y="-10%" width="120%" height="120%" fill="url(#LinearGradient_5)" stroke="none"/>
     </mask>
     <path d="M 789.653,-92.822 L 784.5,-83.25 L 786,-83.25 L 791.246,-92.994 C 790.704,-92.975 790.172,-92.917 789.653,-92.822 Z M 792.72,-92.946 L 787.5,-83.25 L 789,-83.25 L 794.097,-92.718 C 793.648,-92.822 793.188,-92.899 792.72,-92.946 Z M 785.858,-91.346 L 781.5,-83.25 L 783,-83.25 L 787.895,-92.344 C 787.178,-92.081 786.496,-91.746 785.858,-91.346 Z M 795.388,-92.331 L 790.5,-83.25 L 792,-83.25 L 796.601,-91.796 C 796.21,-91.998 795.805,-92.177 795.388,-92.331 Z" stroke-linejoin="miter" marker-start="none" marker-end="none" mask="url(#TranspMask_1)" fill="url(#LinearGradient_4)"/>
     <mask id="TranspMask_2">
      <rect x="-10%" y="-10%" width="120%" height="120%" fill="url(#LinearGradient_6)" stroke="none"/>
     </mask>
     <path d="M 798.75,-81.75 L 793.5,-72 L 795,-72 L 800.25,-81.75 C 802.408,-86.48 801.123,-85.927 798.75,-81.75 Z M 795.75,-81.75 L 790.5,-72 L 792,-72 L 797.25,-81.75 C 799.608,-86.902 797.895,-84.716 795.75,-81.75 Z M 789.75,-81.75 L 785.261,-73.413 L 786.364,-72.675 L 791.25,-81.75 L 789.75,-81.75 Z M 792.75,-81.75 L 787.573,-72.134 L 789,-72 L 794.25,-81.75 L 792.75,-81.75 Z" fill="#ffffff" stroke-linejoin="miter" marker-start="none" marker-end="none" mask="url(#TranspMask_2)"/>
     <path d="M 795.025,-86.545 L 794.426,-83.058 C 794.394,-82.87 794.479,-82.609 794.615,-82.476 L 798.056,-80.558 C 798.373,-79.895 798.155,-79.339 797.641,-79.265 L 794.306,-78.704 C 794.117,-78.677 793.895,-78.516 793.811,-78.345 L 792.245,-75.173 C 792.015,-74.707 791.279,-74.707 791.049,-75.173 L 789.483,-78.345 C 789.399,-78.516 789.176,-78.678 788.988,-78.705 L 785.682,-79.266 C 785.168,-79.34 784.965,-80.008 785.289,-80.578 L 788.708,-82.477 C 788.844,-82.609 788.93,-82.871 788.898,-83.059 L 788.299,-86.546 C 788.212,-87.058 788.515,-87.278 788.974,-87.036 L 791.356,-85.389 C 791.524,-85.301 791.799,-85.301 791.968,-85.389 L 794.35,-87.035 C 794.81,-87.277 795.112,-87.057 795.025,-86.545 Z" fill="#b77dff" stroke-linejoin="miter" marker-start="none" marker-end="none"/>
     <path d="M 795.774,-87.296 L 795.175,-83.809 C 795.144,-83.621 795.229,-83.36 795.365,-83.227 L 797.899,-80.756 C 798.27,-80.394 798.155,-80.039 797.641,-79.965 L 794.138,-79.455 C 793.95,-79.428 793.727,-79.267 793.644,-79.096 L 792.078,-75.923 C 791.848,-75.458 791.474,-75.458 791.244,-75.924 L 789.679,-79.096 C 789.595,-79.267 789.372,-79.428 789.184,-79.455 L 785.681,-79.966 C 785.168,-80.04 785.052,-80.396 785.424,-80.758 L 787.958,-83.227 C 788.094,-83.36 788.179,-83.622 788.147,-83.809 L 787.549,-87.297 C 787.462,-87.809 787.764,-88.028 788.224,-87.787 L 791.355,-86.14 C 791.524,-86.051 791.799,-86.051 791.967,-86.14 L 795.1,-87.786 C 795.559,-88.028 795.862,-87.808 795.774,-87.296 Z" stroke-linejoin="miter" marker-start="none" marker-end="none" fill="url(#LinearGradient_7)"/>
    </g>
   </g>
  </g>
 </g>
</svg>
