<?xml version="1.0" standalone="no"?>
<!DOCTYPE svg PUBLIC "-//W3C//DTD SVG 1.1//EN" "http://www.w3.org/Graphics/SVG/1.1/DTD/svg11.dtd">
<!--Generator: Xara Xtreme (www.xara.com), SVG filter version: 1.0.0.13-->
<svg stroke-width="0.501" stroke-linejoin="bevel" fill-rule="evenodd" xmlns:xlink="http://www.w3.org/1999/xlink" xmlns="http://www.w3.org/2000/svg" version="1.1" overflow="visible" width="996.75pt" height="933.75pt" viewBox="0 0 996.75 933.75">
 <defs>
  <marker id="DefaultArrow2" markerUnits="strokeWidth" viewBox="0 0 1 1" markerWidth="1" markerHeight="1" overflow="visible" orient="auto">
   <!-- REF_ARROW_STRAIGHT (-2) -->
   <g transform="scale(0.0092592592)">
    <!-- 1/108 -->
    <path d="M -9 54 L -9 -54 L 117 0 z"/>
   </g>
  </marker>
  <marker id="DefaultArrow3" markerUnits="strokeWidth" viewBox="0 0 1 1" markerWidth="1" markerHeight="1" overflow="visible" orient="auto">
   <!-- REF_ARROW_ANGLED -->
   <g transform="scale(0.0092592592)">
    <path d="M -27 54 L -9 0 L -27 -54 L 135 0 z"/>
   </g>
  </marker>
  <marker id="DefaultArrow4" markerUnits="strokeWidth" viewBox="0 0 1 1" markerWidth="1" markerHeight="1" overflow="visible" orient="auto">
   <!-- REF_ARROW_ROUNDED -->
   <g transform="scale(0.0092592592)">
    <path d="M -9,0 L -9,-45 C -9,-51.708 2.808,-56.580 9,-54 L 117,-9 C 120.916,-7.369 126.000,-4.242 126,0 C 126,4.242 120.916,7.369 117,9 L 9,54 C 2.808,56.580 -9,51.708 -9,45 z"/>
   </g>
  </marker>
  <marker id="DefaultArrow5" markerUnits="strokeWidth" viewBox="0 0 1 1" markerWidth="1" markerHeight="1" overflow="visible" orient="auto">
   <!-- REF_ARROW_SPOT -->
   <g transform="scale(0.0092592592)">
    <path d="M -54, 0 C -54,29.807 -29.807,54 0,54 C 29.807,54 54,29.807 54,0 C 54,-29.807 29.807,-54 0,-54 C -29.807,-54 -54,-29.807 -54,0 z"/>
   </g>
  </marker>
  <marker id="DefaultArrow6" markerUnits="strokeWidth" viewBox="0 0 1 1" markerWidth="1" markerHeight="1" overflow="visible" orient="auto">
   <!-- REF_ARROW_DIAMOND -->
   <g transform="scale(0.0092592592)">
    <path d="M -63,0 L 0,63 L 63,0 L 0,-63 z"/>
   </g>
  </marker>
  <marker id="DefaultArrow7" markerUnits="strokeWidth" viewBox="0 0 1 1" markerWidth="1" markerHeight="1" overflow="visible" orient="auto">
   <!-- REF_ARROW_FEATHER -->
   <g transform="scale(0.0092592592)">
    <path d="M 18,-54 L 108,-54 L 63,0 L 108,54 L 18, 54 L -36,0 z"/>
   </g>
  </marker>
  <marker id="DefaultArrow8" markerUnits="strokeWidth" viewBox="0 0 1 1" markerWidth="1" markerHeight="1" overflow="visible" orient="auto">
   <!-- REF_ARROW_FEATHER2 -->
   <g transform="scale(0.0092592592)">
    <path d="M -36,0 L 18,-54 L 54,-54 L 18,-18 L 27,-18 L 63,-54 L 99,-54 L 63,-18 L 72,-18 L 108,-54 L 144,-54 L 90,0 L 144,54 L 108,54 L 72,18 L 63,18 L 99,54 L 63,54 L 27,18 L 18,18 L 54,54 L 18,54 z"/>
   </g>
  </marker>
  <marker id="DefaultArrow9" markerUnits="strokeWidth" viewBox="0 0 1 1" markerWidth="1" markerHeight="1" overflow="visible" orient="auto">
   <!-- REF_ARROW_HOLLOWDIAMOND -->
   <g transform="scale(0.0092592592)">
    <path d="M 0,45 L -45,0 L 0, -45 L 45, 0 z M 0, 63 L-63, 0 L 0, -63 L 63, 0 z"/>
   </g>
  </marker>
  <filter id="StainedFilter">
   <feBlend mode="multiply" in2="BackgroundImage" in="SourceGraphic" result="blend"/>
   <feComposite in="blend" in2="SourceAlpha" operator="in" result="comp"/>
  </filter>
  <filter id="BleachFilter">
   <feBlend mode="screen" in2="BackgroundImage" in="SourceGraphic" result="blend"/>
   <feComposite in="blend" in2="SourceAlpha" operator="in" result="comp"/>
  </filter>
  <filter id="InvertTransparencyBitmapFilter">
   <feComponentTransfer>
    <feFuncR type="gamma" amplitude="1.055" exponent=".416666666" offset="-0.055"/>
    <feFuncG type="gamma" amplitude="1.055" exponent=".416666666" offset="-0.055"/>
    <feFuncB type="gamma" amplitude="1.055" exponent=".416666666" offset="-0.055"/>
   </feComponentTransfer>
   <feComponentTransfer>
    <feFuncR type="linear" slope="-1" intercept="1"/>
    <feFuncG type="linear" slope="-1" intercept="1"/>
    <feFuncB type="linear" slope="-1" intercept="1"/>
    <feFuncA type="linear" slope="1" intercept="0"/>
   </feComponentTransfer>
   <feComponentTransfer>
    <feFuncR type="gamma" amplitude="1" exponent="2.4" offset="0"/>
    <feFuncG type="gamma" amplitude="1" exponent="2.4" offset="0"/>
    <feFuncB type="gamma" amplitude="1" exponent="2.4" offset="0"/>
   </feComponentTransfer>
  </filter>
  <linearGradient id="LinearGradient" gradientUnits="userSpaceOnUse" x1="0" y1="0" x2="-7.134" y2="-16.157" gradientTransform="translate(715.884 -296.593)">
   <stop offset="0" stop-color="#7ec0ed"/>
   <stop offset="1" stop-color="#519bce"/>
  </linearGradient>
  <linearGradient id="LinearGradient_1" gradientUnits="userSpaceOnUse" x1="0" y1="0" x2="-2.25" y2="-15.75" gradientTransform="translate(717 -293.25)">
   <stop offset="0" stop-color="#ffffff"/>
   <stop offset="1" stop-color="#000000"/>
  </linearGradient>
  <linearGradient id="LinearGradient_2" gradientUnits="userSpaceOnUse" x1="0" y1="0" x2="0" y2="6.301" gradientTransform="translate(717 -313.5)">
   <stop offset="0" stop-color="#ffffff"/>
   <stop offset="1" stop-color="#000000"/>
  </linearGradient>
  <linearGradient id="LinearGradient_3" gradientUnits="userSpaceOnUse" x1="0" y1="0" x2="0" y2="14.25" gradientTransform="translate(721.5 -312.75)">
   <stop offset="0" stop-color="#e0e0e0"/>
   <stop offset="1" stop-color="#ffffff"/>
  </linearGradient>
  <linearGradient id="LinearGradient_4" gradientUnits="userSpaceOnUse" x1="0" y1="0" x2="11.529" y2="0" gradientTransform="translate(720.255 -310.711) rotate(90)">
   <stop offset="0" stop-color="#e0e0e0"/>
   <stop offset="1" stop-color="#ffffff"/>
  </linearGradient>
 </defs>
 <g id="Document" fill="none" stroke="black" font-family="Times New Roman" font-size="16" transform="scale(1 -1)">
  <g id="Spread" transform="translate(0 -933.75)">
   <g id="icons">
    <g id="Group" stroke="none">
     <rect x="698.25" y="-316.499" width="24" height="23.999" stroke-opacity="0.407843" stroke-linejoin="miter"/>
     <rect x="699.749" y="-315.001" width="21.002" height="21.003" rx="2.568" stroke-opacity="0.341176" fill="#000000" stroke-width="0.541" stroke-linejoin="miter" stroke-miterlimit="79.8403193612775" fill-opacity="0.341176"/>
     <rect x="698.999" y="-315.751" width="21.002" height="21.003" rx="2.568" stroke-opacity="0.341176" fill="#000000" stroke-width="0.541" stroke-linejoin="miter" stroke-miterlimit="79.8403193612775" fill-opacity="0.341176"/>
     <rect x="700.5" y="-314.249" width="19.5" height="19.499" rx="1.95" stroke-opacity="0.341176" stroke-width="0.541" stroke-linejoin="miter" stroke-miterlimit="79.8403193612775" fill="url(#LinearGradient)"/>
     <mask id="TranspMask">
      <rect x="-10%" y="-10%" width="120%" height="120%" fill="url(#LinearGradient_1)" stroke="none"/>
     </mask>
     <path d="M 701.248,-297.543 L 701.248,-302.458 L 719.251,-305.458 L 719.251,-297.543 C 719.251,-296.415 718.335,-295.499 717.207,-295.499 L 703.292,-295.499 C 702.164,-295.499 701.248,-296.415 701.248,-297.543 Z" fill="#ffffff" stroke-opacity="0.341176" stroke-width="0.541" stroke-linejoin="miter" marker-start="none" marker-end="none" stroke-miterlimit="79.8403193612775" mask="url(#TranspMask)"/>
     <mask id="TranspMask_1">
      <rect x="-10%" y="-10%" width="120%" height="120%" fill="url(#LinearGradient_2)" stroke="none"/>
     </mask>
     <path d="M 701.248,-311.455 L 701.248,-306.54 C 705.607,-311.483 711.99,-311.873 719.251,-310.29 L 719.251,-311.455 C 719.251,-312.583 718.335,-313.499 717.207,-313.499 L 703.292,-313.499 C 702.164,-313.499 701.248,-312.583 701.248,-311.455 Z" fill="#3ce3ff" stroke-opacity="0.341176" stroke-width="0.541" stroke-linejoin="miter" marker-start="none" marker-end="none" stroke-miterlimit="79.8403193612775" mask="url(#TranspMask_1)"/>
     <path d="M 702,-296.25 L 718.5,-296.25 C 718.274,-295.726 717.766,-295.484 717,-295.5 L 703.5,-295.5 C 702.803,-295.481 702.301,-295.728 702,-296.25 Z" fill="#ffffff" stroke-width="0.541" stroke-opacity="0.341176" stroke-linejoin="miter" marker-start="none" marker-end="none" stroke-miterlimit="79.8403193612775"/>
     <path d="M 704.206,-310.934 C 704.028,-310.816 703.881,-310.664 703.77,-310.482 C 703.547,-310.117 703.5,-309.689 703.5,-309.295 L 703.5,-308.705 C 703.5,-308.312 703.547,-307.884 703.77,-307.519 C 703.825,-307.428 703.89,-307.345 703.962,-307.269 L 706.284,-306.75 L 713.463,-306.75 L 716.536,-307.27 C 716.609,-307.346 716.673,-307.429 716.729,-307.52 C 716.952,-307.884 717,-308.313 717,-308.705 L 717,-309.295 C 717,-309.688 716.952,-310.117 716.729,-310.481 C 716.618,-310.663 716.471,-310.816 716.293,-310.934 C 715.893,-311.199 715.398,-311.25 714.937,-311.25 L 705.562,-311.25 C 705.101,-311.25 704.606,-311.199 704.206,-310.934 Z M 707.139,-306.001 L 704.2,-305.572 L 704.089,-305.495 C 703.941,-305.373 703.813,-305.226 703.712,-305.051 C 703.285,-304.317 703.549,-303.486 704.046,-302.826 L 708.211,-298.069 L 708.393,-297.852 C 709.451,-296.717 711.048,-296.717 712.106,-297.852 L 712.288,-298.069 L 716.456,-302.832 C 716.95,-303.487 717.214,-304.318 716.787,-305.052 C 716.685,-305.227 716.557,-305.374 716.409,-305.496 L 716.299,-305.573 L 713.358,-306.001 L 707.139,-306.001 Z" stroke-width="0.5" fill="#000000" fill-rule="evenodd" marker-start="none" marker-end="none" stroke-miterlimit="79.8403193612775" fill-opacity="0.341176"/>
     <path d="M 704.25,-309.295 L 704.25,-308.705 C 704.25,-307.792 704.568,-307.5 705.562,-307.5 L 714.937,-307.5 C 715.932,-307.5 716.25,-307.792 716.25,-308.705 L 716.25,-309.295 C 716.25,-310.208 715.932,-310.5 714.937,-310.5 L 705.562,-310.5 C 704.568,-310.5 704.25,-310.208 704.25,-309.295 Z" stroke-width="0.346" stroke-opacity="0.341176" stroke-linejoin="miter" marker-start="none" marker-end="none" stroke-miterlimit="79.8403193612775" fill="url(#LinearGradient_3)"/>
     <path d="M 714.723,-305.25 L 705.777,-305.249 C 704.334,-305.249 703.823,-304.37 704.638,-303.287 L 708.776,-298.562 C 709.59,-297.479 710.911,-297.479 711.725,-298.562 L 715.862,-303.287 C 716.677,-304.371 716.166,-305.25 714.723,-305.25 Z" stroke-width="0.318" stroke-opacity="0.341176" stroke-linejoin="miter" marker-start="none" marker-end="none" stroke-miterlimit="79.8403193612775" fill="url(#LinearGradient_4)"/>
    </g>
   </g>
  </g>
 </g>
</svg>
