<?xml version="1.0" standalone="no"?>
<!DOCTYPE svg PUBLIC "-//W3C//DTD SVG 1.1//EN" "http://www.w3.org/Graphics/SVG/1.1/DTD/svg11.dtd">
<!--Generator: Xara Xtreme (www.xara.com), SVG filter version: 1.0.0.13-->
<svg stroke-width="0.501" stroke-linejoin="bevel" fill-rule="evenodd" xmlns:xlink="http://www.w3.org/1999/xlink" xmlns="http://www.w3.org/2000/svg" version="1.1" overflow="visible" width="1008pt" height="2334pt" viewBox="0 0 1008 2334">
 <defs>
  <marker id="DefaultArrow2" markerUnits="strokeWidth" viewBox="0 0 1 1" markerWidth="1" markerHeight="1" overflow="visible" orient="auto">
   <!-- REF_ARROW_STRAIGHT (-2) -->
   <g transform="scale(0.0092592592)">
    <!-- 1/108 -->
    <path d="M -9 54 L -9 -54 L 117 0 z"/>
   </g>
  </marker>
  <marker id="DefaultArrow3" markerUnits="strokeWidth" viewBox="0 0 1 1" markerWidth="1" markerHeight="1" overflow="visible" orient="auto">
   <!-- REF_ARROW_ANGLED -->
   <g transform="scale(0.0092592592)">
    <path d="M -27 54 L -9 0 L -27 -54 L 135 0 z"/>
   </g>
  </marker>
  <marker id="DefaultArrow4" markerUnits="strokeWidth" viewBox="0 0 1 1" markerWidth="1" markerHeight="1" overflow="visible" orient="auto">
   <!-- REF_ARROW_ROUNDED -->
   <g transform="scale(0.0092592592)">
    <path d="M -9,0 L -9,-45 C -9,-51.708 2.808,-56.580 9,-54 L 117,-9 C 120.916,-7.369 126.000,-4.242 126,0 C 126,4.242 120.916,7.369 117,9 L 9,54 C 2.808,56.580 -9,51.708 -9,45 z"/>
   </g>
  </marker>
  <marker id="DefaultArrow5" markerUnits="strokeWidth" viewBox="0 0 1 1" markerWidth="1" markerHeight="1" overflow="visible" orient="auto">
   <!-- REF_ARROW_SPOT -->
   <g transform="scale(0.0092592592)">
    <path d="M -54, 0 C -54,29.807 -29.807,54 0,54 C 29.807,54 54,29.807 54,0 C 54,-29.807 29.807,-54 0,-54 C -29.807,-54 -54,-29.807 -54,0 z"/>
   </g>
  </marker>
  <marker id="DefaultArrow6" markerUnits="strokeWidth" viewBox="0 0 1 1" markerWidth="1" markerHeight="1" overflow="visible" orient="auto">
   <!-- REF_ARROW_DIAMOND -->
   <g transform="scale(0.0092592592)">
    <path d="M -63,0 L 0,63 L 63,0 L 0,-63 z"/>
   </g>
  </marker>
  <marker id="DefaultArrow7" markerUnits="strokeWidth" viewBox="0 0 1 1" markerWidth="1" markerHeight="1" overflow="visible" orient="auto">
   <!-- REF_ARROW_FEATHER -->
   <g transform="scale(0.0092592592)">
    <path d="M 18,-54 L 108,-54 L 63,0 L 108,54 L 18, 54 L -36,0 z"/>
   </g>
  </marker>
  <marker id="DefaultArrow8" markerUnits="strokeWidth" viewBox="0 0 1 1" markerWidth="1" markerHeight="1" overflow="visible" orient="auto">
   <!-- REF_ARROW_FEATHER2 -->
   <g transform="scale(0.0092592592)">
    <path d="M -36,0 L 18,-54 L 54,-54 L 18,-18 L 27,-18 L 63,-54 L 99,-54 L 63,-18 L 72,-18 L 108,-54 L 144,-54 L 90,0 L 144,54 L 108,54 L 72,18 L 63,18 L 99,54 L 63,54 L 27,18 L 18,18 L 54,54 L 18,54 z"/>
   </g>
  </marker>
  <marker id="DefaultArrow9" markerUnits="strokeWidth" viewBox="0 0 1 1" markerWidth="1" markerHeight="1" overflow="visible" orient="auto">
   <!-- REF_ARROW_HOLLOWDIAMOND -->
   <g transform="scale(0.0092592592)">
    <path d="M 0,45 L -45,0 L 0, -45 L 45, 0 z M 0, 63 L-63, 0 L 0, -63 L 63, 0 z"/>
   </g>
  </marker>
  <filter id="StainedFilter">
   <feBlend mode="multiply" in2="BackgroundImage" in="SourceGraphic" result="blend"/>
   <feComposite in="blend" in2="SourceAlpha" operator="in" result="comp"/>
  </filter>
  <filter id="BleachFilter">
   <feBlend mode="screen" in2="BackgroundImage" in="SourceGraphic" result="blend"/>
   <feComposite in="blend" in2="SourceAlpha" operator="in" result="comp"/>
  </filter>
  <filter id="InvertTransparencyBitmapFilter">
   <feComponentTransfer>
    <feFuncR type="gamma" amplitude="1.055" exponent=".416666666" offset="-0.055"/>
    <feFuncG type="gamma" amplitude="1.055" exponent=".416666666" offset="-0.055"/>
    <feFuncB type="gamma" amplitude="1.055" exponent=".416666666" offset="-0.055"/>
   </feComponentTransfer>
   <feComponentTransfer>
    <feFuncR type="linear" slope="-1" intercept="1"/>
    <feFuncG type="linear" slope="-1" intercept="1"/>
    <feFuncB type="linear" slope="-1" intercept="1"/>
    <feFuncA type="linear" slope="1" intercept="0"/>
   </feComponentTransfer>
   <feComponentTransfer>
    <feFuncR type="gamma" amplitude="1" exponent="2.4" offset="0"/>
    <feFuncG type="gamma" amplitude="1" exponent="2.4" offset="0"/>
    <feFuncB type="gamma" amplitude="1" exponent="2.4" offset="0"/>
   </feComponentTransfer>
  </filter>
  <linearGradient id="LinearGradient" gradientUnits="userSpaceOnUse" x1="0" y1="0" x2="-5" y2="-15.714" gradientTransform="translate(706.536 1069.39)">
   <stop offset="0" stop-color="#ffffff"/>
   <stop offset="1" stop-color="#a7a7a7"/>
  </linearGradient>
  <linearGradient id="LinearGradient_1" gradientUnits="userSpaceOnUse" x1="0" y1="0" x2="-2.25" y2="-3" gradientTransform="translate(702 1060.5)">
   <stop offset="0" stop-color="#353535"/>
   <stop offset="1" stop-color="#505050"/>
  </linearGradient>
  <linearGradient id="LinearGradient_2" gradientUnits="userSpaceOnUse" x1="0" y1="0" x2="15" y2="12" gradientTransform="translate(687 1049.25)">
   <stop offset="0" stop-color="#ffffff"/>
   <stop offset="1" stop-color="#000000"/>
  </linearGradient>
  <linearGradient id="LinearGradient_3" gradientUnits="userSpaceOnUse" x1="0" y1="0" x2="-15" y2="-12" gradientTransform="translate(712.536 1070.18)">
   <stop offset="0" stop-color="#ffffff"/>
   <stop offset="1" stop-color="#000000"/>
  </linearGradient>
  <linearGradient id="LinearGradient_4" gradientUnits="userSpaceOnUse" x1="0" y1="0" x2="-6.75" y2="-6.75" gradientTransform="translate(702.75 1063.5)">
   <stop offset="0" stop-color="#ffffff"/>
   <stop offset="1" stop-color="#000000"/>
  </linearGradient>
  <linearGradient id="LinearGradient_5" gradientUnits="userSpaceOnUse" x1="0" y1="0" x2="-2.999" y2="-3" gradientTransform="translate(701.25 1061.25)">
   <stop offset="0" stop-color="#ffffff"/>
   <stop offset="1" stop-color="#757575"/>
  </linearGradient>
  <linearGradient id="LinearGradient_6" gradientUnits="userSpaceOnUse" x1="0" y1="0" x2="0" y2="20.25" gradientTransform="translate(717.75 1050)">
   <stop offset="0" stop-color="#a1ed00"/>
   <stop offset="1" stop-color="#ff0000"/>
  </linearGradient>
  <linearGradient id="LinearGradient_7" gradientUnits="userSpaceOnUse" x1="0" y1="0" x2="0" y2="20.25" gradientTransform="translate(717.75 1050)">
   <stop offset="0" stop-color="#a1ed00"/>
   <stop offset="1" stop-color="#ff0000"/>
  </linearGradient>
  <linearGradient id="LinearGradient_8" gradientUnits="userSpaceOnUse" x1="0" y1="0" x2="0" y2="20.25" gradientTransform="translate(717.75 1050)">
   <stop offset="0" stop-color="#a1ed00"/>
   <stop offset="1" stop-color="#ff0000"/>
  </linearGradient>
  <linearGradient id="LinearGradient_9" gradientUnits="userSpaceOnUse" x1="0" y1="0" x2="0" y2="20.25" gradientTransform="translate(717.75 1050)">
   <stop offset="0" stop-color="#a1ed00"/>
   <stop offset="1" stop-color="#ff0000"/>
  </linearGradient>
  <linearGradient id="LinearGradient_10" gradientUnits="userSpaceOnUse" x1="0" y1="0" x2="0" y2="20.25" gradientTransform="translate(717.75 1050)">
   <stop offset="0" stop-color="#a1ed00"/>
   <stop offset="1" stop-color="#ff0000"/>
  </linearGradient>
  <linearGradient id="LinearGradient_11" gradientUnits="userSpaceOnUse" x1="0" y1="0" x2="0" y2="20.25" gradientTransform="translate(717.75 1050)">
   <stop offset="0" stop-color="#a1ed00"/>
   <stop offset="1" stop-color="#ff0000"/>
  </linearGradient>
  <linearGradient id="LinearGradient_12" gradientUnits="userSpaceOnUse" x1="0" y1="0" x2="0" y2="20.25" gradientTransform="translate(717.75 1050)">
   <stop offset="0" stop-color="#a1ed00"/>
   <stop offset="1" stop-color="#ff0000"/>
  </linearGradient>
  <linearGradient id="LinearGradient_13" gradientUnits="userSpaceOnUse" x1="0" y1="0" x2="-1.98" y2="-9.3" gradientTransform="translate(713.294 1072.76)">
   <stop offset="0" stop-color="#ffffff"/>
   <stop offset="1" stop-color="#000000"/>
  </linearGradient>
  <linearGradient id="LinearGradient_14" gradientUnits="userSpaceOnUse" x1="0" y1="0" x2="-1.98" y2="-9.3" gradientTransform="translate(713.294 1069.76)">
   <stop offset="0" stop-color="#ffffff"/>
   <stop offset="1" stop-color="#000000"/>
  </linearGradient>
  <linearGradient id="LinearGradient_15" gradientUnits="userSpaceOnUse" x1="0" y1="0" x2="-1.98" y2="-9.3" gradientTransform="translate(713.294 1066.76)">
   <stop offset="0" stop-color="#ffffff"/>
   <stop offset="1" stop-color="#000000"/>
  </linearGradient>
  <linearGradient id="LinearGradient_16" gradientUnits="userSpaceOnUse" x1="0" y1="0" x2="-1.98" y2="-9.3" gradientTransform="translate(713.294 1063.76)">
   <stop offset="0" stop-color="#ffffff"/>
   <stop offset="1" stop-color="#000000"/>
  </linearGradient>
  <linearGradient id="LinearGradient_17" gradientUnits="userSpaceOnUse" x1="0" y1="0" x2="-1.98" y2="-9.3" gradientTransform="translate(713.294 1060.76)">
   <stop offset="0" stop-color="#ffffff"/>
   <stop offset="1" stop-color="#000000"/>
  </linearGradient>
  <linearGradient id="LinearGradient_18" gradientUnits="userSpaceOnUse" x1="0" y1="0" x2="-1.98" y2="-9.3" gradientTransform="translate(713.294 1057.76)">
   <stop offset="0" stop-color="#ffffff"/>
   <stop offset="1" stop-color="#000000"/>
  </linearGradient>
  <linearGradient id="LinearGradient_19" gradientUnits="userSpaceOnUse" x1="0" y1="0" x2="-1.98" y2="-9.3" gradientTransform="translate(713.294 1054.76)">
   <stop offset="0" stop-color="#ffffff"/>
   <stop offset="1" stop-color="#000000"/>
  </linearGradient>
  <linearGradient id="LinearGradient_20" gradientUnits="userSpaceOnUse" x1="0" y1="0" x2="-3" y2="-12.75" gradientTransform="translate(866.25 1824)">
   <stop offset="0" stop-color="#0067af"/>
   <stop offset="1" stop-color="#003356"/>
  </linearGradient>
 </defs>
 <g id="Document" fill="none" stroke="black" font-family="Times New Roman" font-size="16" transform="scale(1 -1)">
  <g id="Spread" transform="translate(0 -2334)">
   <g id="icons">
    <g id="Group" stroke-linejoin="miter" stroke="none">
     <path d="M 690.749,1071.75 L 690.749,1047.75 L 714.75,1047.75 L 714.75,1071.75 L 690.749,1071.75 Z" stroke-opacity="0.372549" stroke-width="0.381" marker-start="none" marker-end="none" stroke-miterlimit="79.8403193612775"/>
     <path d="M 699,1067.25 C 703.553,1067.25 707.25,1063.55 707.25,1059 C 707.25,1054.45 703.553,1050.75 699,1050.75 C 694.447,1050.75 690.75,1054.45 690.75,1059 C 690.75,1063.55 694.447,1067.25 699,1067.25 Z" stroke-opacity="0.337255" fill="#000000" stroke-width="0.611" marker-start="none" marker-end="none" stroke-miterlimit="79.8403193612775" fill-opacity="0.337255"/>
     <path d="M 699.75,1068 C 704.303,1068 708,1064.3 708,1059.75 C 708,1055.2 704.303,1051.5 699.75,1051.5 C 695.197,1051.5 691.5,1055.2 691.5,1059.75 C 691.5,1064.3 695.197,1068 699.75,1068 Z" stroke-opacity="0.337255" fill="#000000" stroke-width="0.611" marker-start="none" marker-end="none" stroke-miterlimit="79.8403193612775" fill-opacity="0.337255"/>
     <path d="M 699.75,1067.25 C 703.889,1067.25 707.25,1063.89 707.25,1059.75 C 707.25,1055.61 703.889,1052.25 699.75,1052.25 C 695.611,1052.25 692.25,1055.61 692.25,1059.75 C 692.25,1063.89 695.611,1067.25 699.75,1067.25 Z" stroke-opacity="0.337255" stroke-width="0.555" marker-start="none" marker-end="none" stroke-miterlimit="79.8403193612775" fill="url(#LinearGradient)"/>
     <path d="M 699.75,1065.75 C 703.061,1065.75 705.75,1063.06 705.75,1059.75 C 705.75,1056.44 703.061,1053.75 699.75,1053.75 C 696.439,1053.75 693.75,1056.44 693.75,1059.75 C 693.75,1063.06 696.439,1065.75 699.75,1065.75 Z" stroke-opacity="0.337255" stroke-width="0.444" marker-start="none" marker-end="none" stroke-miterlimit="79.8403193612775" fill="url(#LinearGradient_1)"/>
     <mask id="TranspMask">
      <rect x="-10%" y="-10%" width="120%" height="120%" fill="url(#LinearGradient_2)" stroke="none"/>
     </mask>
     <path d="M 694.536,1059.13 L 698.25,1059.75 L 699,1058.25 L 697.16,1055.18 C 695.742,1055.99 694.736,1057.44 694.536,1059.13 Z" fill="#ffffff" stroke-width="0.381" stroke-opacity="0.337255" marker-start="none" marker-end="none" stroke-miterlimit="79.8403193612775" mask="url(#TranspMask)"/>
     <mask id="TranspMask_1">
      <rect x="-10%" y="-10%" width="120%" height="120%" fill="url(#LinearGradient_3)" stroke="none"/>
     </mask>
     <path d="M 705,1060.3 L 701.286,1059.68 L 700.536,1061.18 L 702.376,1064.25 C 703.794,1063.44 704.8,1062 705,1060.3 Z" fill="#ffffff" stroke-width="0.381" stroke-opacity="0.337255" marker-start="none" marker-end="none" stroke-miterlimit="79.8403193612775" mask="url(#TranspMask_1)"/>
     <mask id="TranspMask_2">
      <rect x="-10%" y="-10%" width="120%" height="120%" fill="url(#LinearGradient_4)" stroke="none"/>
     </mask>
     <path d="M 699.75,1062.75 C 701.406,1062.75 702.75,1061.41 702.75,1059.75 C 702.75,1058.09 701.406,1056.75 699.75,1056.75 C 698.094,1056.75 696.75,1058.09 696.75,1059.75 C 696.75,1061.41 698.094,1062.75 699.75,1062.75 Z" fill="#000000" stroke-opacity="0.337255" stroke-width="0.381" marker-start="none" marker-end="none" stroke-miterlimit="79.8403193612775" mask="url(#TranspMask_2)"/>
     <path d="M 699.75,1062 C 700.992,1062 702.001,1060.99 702.001,1059.75 C 702.001,1058.51 700.992,1057.5 699.75,1057.5 C 698.508,1057.5 697.499,1058.51 697.499,1059.75 C 697.499,1060.99 698.508,1062 699.75,1062 Z" stroke-opacity="0.337255" stroke-width="0.381" marker-start="none" marker-end="none" stroke-miterlimit="79.8403193612775" fill="url(#LinearGradient_5)"/>
     <path d="M 700.5,1061.25 C 700.914,1061.25 701.25,1060.91 701.25,1060.5 C 701.25,1060.09 700.914,1059.75 700.5,1059.75 C 700.086,1059.75 699.75,1060.09 699.75,1060.5 C 699.75,1060.91 700.086,1061.25 700.5,1061.25 Z" fill="#ffffff" stroke-opacity="0.337255" stroke-width="0.381" marker-start="none" marker-end="none" stroke-miterlimit="79.8403193612775"/>
     <path d="M 707.25,1069.82 L 707.25,1048.94 C 707.25,1048.7 707.446,1048.5 707.686,1048.5 L 713.565,1048.5 C 713.805,1048.5 714.001,1048.7 714.001,1048.94 L 714.001,1069.82 C 714.001,1070.06 713.805,1070.25 713.565,1070.25 L 707.686,1070.25 C 707.446,1070.25 707.25,1070.06 707.25,1069.82 Z" stroke-opacity="0.372549" fill="#000000" stroke-width="0.381" marker-start="none" marker-end="none" stroke-miterlimit="79.8403193612775" fill-opacity="0.372549"/>
     <path d="M 707.999,1070.56 L 707.999,1049.68 C 707.999,1049.44 708.195,1049.25 708.435,1049.25 L 714.314,1049.25 C 714.554,1049.25 714.75,1049.44 714.75,1049.68 L 714.75,1070.56 C 714.75,1070.8 714.554,1071 714.314,1071 L 708.435,1071 C 708.195,1071 707.999,1070.8 707.999,1070.56 Z" stroke-opacity="0.372549" fill="#000000" stroke-width="0.381" marker-start="none" marker-end="none" stroke-miterlimit="79.8403193612775" fill-opacity="0.372549"/>
     <path d="M 708.749,1069.93 L 708.749,1068.32 C 708.749,1068.14 708.892,1068 709.067,1068 L 713.682,1068 C 713.857,1068 714,1068.14 714,1068.32 L 714,1069.93 C 714,1070.11 713.857,1070.25 713.682,1070.25 L 709.067,1070.25 C 708.892,1070.25 708.749,1070.11 708.749,1069.93 Z" stroke-opacity="0.337255" stroke-width="0.381" marker-start="none" marker-end="none" stroke-miterlimit="79.8403193612775" fill="url(#LinearGradient_6)"/>
     <path d="M 708.749,1066.93 L 708.749,1065.32 C 708.749,1065.14 708.892,1065 709.067,1065 L 713.682,1065 C 713.857,1065 714,1065.14 714,1065.32 L 714,1066.93 C 714,1067.11 713.857,1067.25 713.682,1067.25 L 709.067,1067.25 C 708.892,1067.25 708.749,1067.11 708.749,1066.93 Z" stroke-opacity="0.337255" stroke-width="0.381" marker-start="none" marker-end="none" stroke-miterlimit="79.8403193612775" fill="url(#LinearGradient_7)"/>
     <path d="M 708.749,1063.93 L 708.749,1062.32 C 708.749,1062.14 708.892,1062 709.067,1062 L 713.682,1062 C 713.857,1062 714,1062.14 714,1062.32 L 714,1063.93 C 714,1064.11 713.857,1064.25 713.682,1064.25 L 709.067,1064.25 C 708.892,1064.25 708.749,1064.11 708.749,1063.93 Z" stroke-opacity="0.337255" stroke-width="0.381" marker-start="none" marker-end="none" stroke-miterlimit="79.8403193612775" fill="url(#LinearGradient_8)"/>
     <path d="M 708.749,1060.93 L 708.749,1059.32 C 708.749,1059.14 708.892,1059 709.067,1059 L 713.682,1059 C 713.857,1059 714,1059.14 714,1059.32 L 714,1060.93 C 714,1061.11 713.857,1061.25 713.682,1061.25 L 709.067,1061.25 C 708.892,1061.25 708.749,1061.11 708.749,1060.93 Z" stroke-opacity="0.337255" stroke-width="0.381" marker-start="none" marker-end="none" stroke-miterlimit="79.8403193612775" fill="url(#LinearGradient_9)"/>
     <path d="M 708.749,1057.93 L 708.749,1056.32 C 708.749,1056.14 708.892,1056 709.067,1056 L 713.682,1056 C 713.857,1056 714,1056.14 714,1056.32 L 714,1057.93 C 714,1058.11 713.857,1058.25 713.682,1058.25 L 709.067,1058.25 C 708.892,1058.25 708.749,1058.11 708.749,1057.93 Z" stroke-opacity="0.337255" stroke-width="0.381" marker-start="none" marker-end="none" stroke-miterlimit="79.8403193612775" fill="url(#LinearGradient_10)"/>
     <path d="M 708.749,1054.93 L 708.749,1053.32 C 708.749,1053.14 708.892,1053 709.067,1053 L 713.682,1053 C 713.857,1053 714,1053.14 714,1053.32 L 714,1054.93 C 714,1055.11 713.857,1055.25 713.682,1055.25 L 709.067,1055.25 C 708.892,1055.25 708.749,1055.11 708.749,1054.93 Z" stroke-opacity="0.337255" stroke-width="0.381" marker-start="none" marker-end="none" stroke-miterlimit="79.8403193612775" fill="url(#LinearGradient_11)"/>
     <path d="M 708.749,1051.93 L 708.749,1050.32 C 708.749,1050.14 708.892,1050 709.067,1050 L 713.682,1050 C 713.857,1050 714,1050.14 714,1050.32 L 714,1051.93 C 714,1052.11 713.857,1052.25 713.682,1052.25 L 709.067,1052.25 C 708.892,1052.25 708.749,1052.11 708.749,1051.93 Z" stroke-opacity="0.337255" stroke-width="0.381" marker-start="none" marker-end="none" stroke-miterlimit="79.8403193612775" fill="url(#LinearGradient_12)"/>
     <mask id="TranspMask_3">
      <rect x="-10%" y="-10%" width="120%" height="120%" fill="url(#LinearGradient_13)" stroke="none"/>
     </mask>
     <path d="M 714,1068 C 713.968,1068.92 713.809,1069.6 713.25,1069.5 L 708.75,1069.5 L 708.75,1069.9 C 708.748,1070.09 708.839,1070.21 709.046,1070.25 L 713.668,1070.25 C 713.889,1070.25 713.998,1070.11 714,1069.84 L 714,1068 Z" fill="#ffffff" stroke-opacity="0.337255" stroke-width="0.381" marker-start="none" marker-end="none" stroke-miterlimit="79.8403193612775" mask="url(#TranspMask_3)"/>
     <mask id="TranspMask_4">
      <rect x="-10%" y="-10%" width="120%" height="120%" fill="url(#LinearGradient_14)" stroke="none"/>
     </mask>
     <path d="M 714,1065 C 713.968,1065.92 713.809,1066.6 713.25,1066.5 L 708.75,1066.5 L 708.75,1066.9 C 708.748,1067.09 708.839,1067.21 709.046,1067.25 L 713.668,1067.25 C 713.889,1067.25 713.998,1067.11 714,1066.84 L 714,1065 Z" fill="#ffffff" stroke-opacity="0.337255" stroke-width="0.381" marker-start="none" marker-end="none" stroke-miterlimit="79.8403193612775" mask="url(#TranspMask_4)"/>
     <mask id="TranspMask_5">
      <rect x="-10%" y="-10%" width="120%" height="120%" fill="url(#LinearGradient_15)" stroke="none"/>
     </mask>
     <path d="M 714,1062 C 713.968,1062.92 713.809,1063.6 713.25,1063.5 L 708.75,1063.5 L 708.75,1063.9 C 708.748,1064.09 708.839,1064.21 709.046,1064.25 L 713.668,1064.25 C 713.889,1064.25 713.998,1064.11 714,1063.84 L 714,1062 Z" fill="#ffffff" stroke-opacity="0.337255" stroke-width="0.381" marker-start="none" marker-end="none" stroke-miterlimit="79.8403193612775" mask="url(#TranspMask_5)"/>
     <mask id="TranspMask_6">
      <rect x="-10%" y="-10%" width="120%" height="120%" fill="url(#LinearGradient_16)" stroke="none"/>
     </mask>
     <path d="M 714,1059 C 713.968,1059.92 713.809,1060.6 713.25,1060.5 L 708.75,1060.5 L 708.75,1060.9 C 708.748,1061.09 708.839,1061.21 709.046,1061.25 L 713.668,1061.25 C 713.889,1061.25 713.998,1061.11 714,1060.84 L 714,1059 Z" fill="#ffffff" stroke-opacity="0.337255" stroke-width="0.381" marker-start="none" marker-end="none" stroke-miterlimit="79.8403193612775" mask="url(#TranspMask_6)"/>
     <mask id="TranspMask_7">
      <rect x="-10%" y="-10%" width="120%" height="120%" fill="url(#LinearGradient_17)" stroke="none"/>
     </mask>
     <path d="M 714,1056 C 713.968,1056.92 713.809,1057.6 713.25,1057.5 L 708.75,1057.5 L 708.75,1057.9 C 708.748,1058.09 708.839,1058.21 709.046,1058.25 L 713.668,1058.25 C 713.889,1058.25 713.998,1058.11 714,1057.84 L 714,1056 Z" fill="#ffffff" stroke-opacity="0.337255" stroke-width="0.381" marker-start="none" marker-end="none" stroke-miterlimit="79.8403193612775" mask="url(#TranspMask_7)"/>
     <mask id="TranspMask_8">
      <rect x="-10%" y="-10%" width="120%" height="120%" fill="url(#LinearGradient_18)" stroke="none"/>
     </mask>
     <path d="M 714,1053 C 713.968,1053.92 713.809,1054.6 713.25,1054.5 L 708.75,1054.5 L 708.75,1054.9 C 708.748,1055.09 708.839,1055.21 709.046,1055.25 L 713.668,1055.25 C 713.889,1055.25 713.998,1055.11 714,1054.84 L 714,1053 Z" fill="#ffffff" stroke-opacity="0.337255" stroke-width="0.381" marker-start="none" marker-end="none" stroke-miterlimit="79.8403193612775" mask="url(#TranspMask_8)"/>
     <mask id="TranspMask_9">
      <rect x="-10%" y="-10%" width="120%" height="120%" fill="url(#LinearGradient_19)" stroke="none"/>
     </mask>
     <path d="M 714,1050 C 713.968,1050.92 713.809,1051.6 713.25,1051.5 L 708.75,1051.5 L 708.75,1051.9 C 708.748,1052.09 708.839,1052.21 709.046,1052.25 L 713.668,1052.25 C 713.889,1052.25 713.998,1052.11 714,1051.84 L 714,1050 Z" fill="#ffffff" stroke-opacity="0.337255" stroke-width="0.381" marker-start="none" marker-end="none" stroke-miterlimit="79.8403193612775" mask="url(#TranspMask_9)"/>
     <path d="M 712.5,1070.14 L 712.5,1069.61 C 712.5,1069.55 712.548,1069.5 712.606,1069.5 L 713.893,1069.5 C 713.951,1069.5 713.999,1069.55 713.999,1069.61 L 713.999,1070.14 C 713.999,1070.2 713.951,1070.25 713.893,1070.25 L 712.606,1070.25 C 712.548,1070.25 712.5,1070.2 712.5,1070.14 Z" stroke-opacity="0.337255" fill="#ffffff" stroke-width="0.381" marker-start="none" marker-end="none" stroke-miterlimit="79.8403193612775"/>
     <path d="M 712.5,1067.14 L 712.5,1066.61 C 712.5,1066.55 712.548,1066.5 712.606,1066.5 L 713.893,1066.5 C 713.951,1066.5 713.999,1066.55 713.999,1066.61 L 713.999,1067.14 C 713.999,1067.2 713.951,1067.25 713.893,1067.25 L 712.606,1067.25 C 712.548,1067.25 712.5,1067.2 712.5,1067.14 Z" stroke-opacity="0.337255" fill="#ffffff" stroke-width="0.381" marker-start="none" marker-end="none" stroke-miterlimit="79.8403193612775"/>
     <path d="M 712.5,1064.14 L 712.5,1063.61 C 712.5,1063.55 712.548,1063.5 712.606,1063.5 L 713.893,1063.5 C 713.951,1063.5 713.999,1063.55 713.999,1063.61 L 713.999,1064.14 C 713.999,1064.2 713.951,1064.25 713.893,1064.25 L 712.606,1064.25 C 712.548,1064.25 712.5,1064.2 712.5,1064.14 Z" stroke-opacity="0.337255" fill="#ffffff" stroke-width="0.381" marker-start="none" marker-end="none" stroke-miterlimit="79.8403193612775"/>
     <path d="M 712.5,1061.14 L 712.5,1060.61 C 712.5,1060.55 712.548,1060.5 712.606,1060.5 L 713.893,1060.5 C 713.951,1060.5 713.999,1060.55 713.999,1060.61 L 713.999,1061.14 C 713.999,1061.2 713.951,1061.25 713.893,1061.25 L 712.606,1061.25 C 712.548,1061.25 712.5,1061.2 712.5,1061.14 Z" stroke-opacity="0.337255" fill="#ffffff" stroke-width="0.381" marker-start="none" marker-end="none" stroke-miterlimit="79.8403193612775"/>
     <path d="M 712.5,1058.14 L 712.5,1057.61 C 712.5,1057.55 712.548,1057.5 712.606,1057.5 L 713.893,1057.5 C 713.951,1057.5 713.999,1057.55 713.999,1057.61 L 713.999,1058.14 C 713.999,1058.2 713.951,1058.25 713.893,1058.25 L 712.606,1058.25 C 712.548,1058.25 712.5,1058.2 712.5,1058.14 Z" stroke-opacity="0.337255" fill="#ffffff" stroke-width="0.381" marker-start="none" marker-end="none" stroke-miterlimit="79.8403193612775"/>
     <path d="M 712.5,1055.14 L 712.5,1054.61 C 712.5,1054.55 712.548,1054.5 712.606,1054.5 L 713.893,1054.5 C 713.951,1054.5 713.999,1054.55 713.999,1054.61 L 713.999,1055.14 C 713.999,1055.2 713.951,1055.25 713.893,1055.25 L 712.606,1055.25 C 712.548,1055.25 712.5,1055.2 712.5,1055.14 Z" stroke-opacity="0.337255" fill="#ffffff" stroke-width="0.381" marker-start="none" marker-end="none" stroke-miterlimit="79.8403193612775"/>
     <path d="M 712.5,1052.14 L 712.5,1051.61 C 712.5,1051.55 712.548,1051.5 712.606,1051.5 L 713.893,1051.5 C 713.951,1051.5 713.999,1051.55 713.999,1051.61 L 713.999,1052.14 C 713.999,1052.2 713.951,1052.25 713.893,1052.25 L 712.606,1052.25 C 712.548,1052.25 712.5,1052.2 712.5,1052.14 Z" stroke-opacity="0.337255" fill="#ffffff" stroke-width="0.381" marker-start="none" marker-end="none" stroke-miterlimit="79.8403193612775"/>
    </g>
   </g>
  </g>
 </g>
</svg>
