<?xml version="1.0" standalone="no"?>
<!DOCTYPE svg PUBLIC "-//W3C//DTD SVG 1.1//EN" "http://www.w3.org/Graphics/SVG/1.1/DTD/svg11.dtd">
<!--Generator: Xara Xtreme (www.xara.com), SVG filter version: 1.0.0.13-->
<svg stroke-width="0.501" stroke-linejoin="bevel" fill-rule="evenodd" xmlns:xlink="http://www.w3.org/1999/xlink" xmlns="http://www.w3.org/2000/svg" version="1.1" overflow="visible" width="1008pt" height="2334pt" viewBox="0 0 1008 2334">
 <defs>
  <marker id="DefaultArrow2" markerUnits="strokeWidth" viewBox="0 0 1 1" markerWidth="1" markerHeight="1" overflow="visible" orient="auto">
   <!-- REF_ARROW_STRAIGHT (-2) -->
   <g transform="scale(0.0092592592)">
    <!-- 1/108 -->
    <path d="M -9 54 L -9 -54 L 117 0 z"/>
   </g>
  </marker>
  <marker id="DefaultArrow3" markerUnits="strokeWidth" viewBox="0 0 1 1" markerWidth="1" markerHeight="1" overflow="visible" orient="auto">
   <!-- REF_ARROW_ANGLED -->
   <g transform="scale(0.0092592592)">
    <path d="M -27 54 L -9 0 L -27 -54 L 135 0 z"/>
   </g>
  </marker>
  <marker id="DefaultArrow4" markerUnits="strokeWidth" viewBox="0 0 1 1" markerWidth="1" markerHeight="1" overflow="visible" orient="auto">
   <!-- REF_ARROW_ROUNDED -->
   <g transform="scale(0.0092592592)">
    <path d="M -9,0 L -9,-45 C -9,-51.708 2.808,-56.580 9,-54 L 117,-9 C 120.916,-7.369 126.000,-4.242 126,0 C 126,4.242 120.916,7.369 117,9 L 9,54 C 2.808,56.580 -9,51.708 -9,45 z"/>
   </g>
  </marker>
  <marker id="DefaultArrow5" markerUnits="strokeWidth" viewBox="0 0 1 1" markerWidth="1" markerHeight="1" overflow="visible" orient="auto">
   <!-- REF_ARROW_SPOT -->
   <g transform="scale(0.0092592592)">
    <path d="M -54, 0 C -54,29.807 -29.807,54 0,54 C 29.807,54 54,29.807 54,0 C 54,-29.807 29.807,-54 0,-54 C -29.807,-54 -54,-29.807 -54,0 z"/>
   </g>
  </marker>
  <marker id="DefaultArrow6" markerUnits="strokeWidth" viewBox="0 0 1 1" markerWidth="1" markerHeight="1" overflow="visible" orient="auto">
   <!-- REF_ARROW_DIAMOND -->
   <g transform="scale(0.0092592592)">
    <path d="M -63,0 L 0,63 L 63,0 L 0,-63 z"/>
   </g>
  </marker>
  <marker id="DefaultArrow7" markerUnits="strokeWidth" viewBox="0 0 1 1" markerWidth="1" markerHeight="1" overflow="visible" orient="auto">
   <!-- REF_ARROW_FEATHER -->
   <g transform="scale(0.0092592592)">
    <path d="M 18,-54 L 108,-54 L 63,0 L 108,54 L 18, 54 L -36,0 z"/>
   </g>
  </marker>
  <marker id="DefaultArrow8" markerUnits="strokeWidth" viewBox="0 0 1 1" markerWidth="1" markerHeight="1" overflow="visible" orient="auto">
   <!-- REF_ARROW_FEATHER2 -->
   <g transform="scale(0.0092592592)">
    <path d="M -36,0 L 18,-54 L 54,-54 L 18,-18 L 27,-18 L 63,-54 L 99,-54 L 63,-18 L 72,-18 L 108,-54 L 144,-54 L 90,0 L 144,54 L 108,54 L 72,18 L 63,18 L 99,54 L 63,54 L 27,18 L 18,18 L 54,54 L 18,54 z"/>
   </g>
  </marker>
  <marker id="DefaultArrow9" markerUnits="strokeWidth" viewBox="0 0 1 1" markerWidth="1" markerHeight="1" overflow="visible" orient="auto">
   <!-- REF_ARROW_HOLLOWDIAMOND -->
   <g transform="scale(0.0092592592)">
    <path d="M 0,45 L -45,0 L 0, -45 L 45, 0 z M 0, 63 L-63, 0 L 0, -63 L 63, 0 z"/>
   </g>
  </marker>
  <filter id="StainedFilter">
   <feBlend mode="multiply" in2="BackgroundImage" in="SourceGraphic" result="blend"/>
   <feComposite in="blend" in2="SourceAlpha" operator="in" result="comp"/>
  </filter>
  <filter id="BleachFilter">
   <feBlend mode="screen" in2="BackgroundImage" in="SourceGraphic" result="blend"/>
   <feComposite in="blend" in2="SourceAlpha" operator="in" result="comp"/>
  </filter>
  <filter id="InvertTransparencyBitmapFilter">
   <feComponentTransfer>
    <feFuncR type="gamma" amplitude="1.055" exponent=".416666666" offset="-0.055"/>
    <feFuncG type="gamma" amplitude="1.055" exponent=".416666666" offset="-0.055"/>
    <feFuncB type="gamma" amplitude="1.055" exponent=".416666666" offset="-0.055"/>
   </feComponentTransfer>
   <feComponentTransfer>
    <feFuncR type="linear" slope="-1" intercept="1"/>
    <feFuncG type="linear" slope="-1" intercept="1"/>
    <feFuncB type="linear" slope="-1" intercept="1"/>
    <feFuncA type="linear" slope="1" intercept="0"/>
   </feComponentTransfer>
   <feComponentTransfer>
    <feFuncR type="gamma" amplitude="1" exponent="2.4" offset="0"/>
    <feFuncG type="gamma" amplitude="1" exponent="2.4" offset="0"/>
    <feFuncB type="gamma" amplitude="1" exponent="2.4" offset="0"/>
   </feComponentTransfer>
  </filter>
  <linearGradient id="LinearGradient" gradientUnits="userSpaceOnUse" x1="0" y1="0" x2="3" y2="25.5" gradientTransform="translate(948.75 921.75)">
   <stop offset="0" stop-color="#868686"/>
   <stop offset="1" stop-color="#ffffff"/>
  </linearGradient>
  <linearGradient id="LinearGradient_1" gradientUnits="userSpaceOnUse" x1="0" y1="0" x2="3" y2="25.5" gradientTransform="translate(948.75 921.75)">
   <stop offset="0" stop-color="#42b1ff"/>
   <stop offset="1" stop-color="#276997"/>
  </linearGradient>
  <linearGradient id="LinearGradient_2" gradientUnits="userSpaceOnUse" x1="0" y1="0" x2="0" y2="22.307" gradientTransform="translate(945.52 915.714)">
   <stop offset="0" stop-color="#ffffff"/>
   <stop offset="1" stop-color="#000000"/>
  </linearGradient>
  <linearGradient id="LinearGradient_3" gradientUnits="userSpaceOnUse" x1="0" y1="0" x2="0" y2="15.927" gradientTransform="translate(951.97 922.569)">
   <stop offset="0" stop-color="#ffffff"/>
   <stop offset="1" stop-color="#000000"/>
  </linearGradient>
  <linearGradient id="LinearGradient_4" gradientUnits="userSpaceOnUse" x1="0" y1="0" x2="0" y2="-28.5" gradientTransform="translate(952.5 958.5)">
   <stop offset="0" stop-color="#ffffff"/>
   <stop offset="1" stop-color="#000000"/>
  </linearGradient>
  <linearGradient id="LinearGradient_5" gradientUnits="userSpaceOnUse" x1="0" y1="0" x2="5.25" y2="-37.5" gradientTransform="translate(949.5 960)">
   <stop offset="0" stop-color="#ffffff"/>
   <stop offset="1" stop-color="#000000"/>
  </linearGradient>
  <linearGradient id="LinearGradient_6" gradientUnits="userSpaceOnUse" x1="0" y1="0" x2="0" y2="33.75" gradientTransform="translate(948 921)">
   <stop offset="0" stop-color="#ffffff"/>
   <stop offset="1" stop-color="#000000"/>
  </linearGradient>
  <linearGradient id="LinearGradient_7" gradientUnits="userSpaceOnUse" x1="0" y1="0" x2="0" y2="26.25" gradientTransform="translate(955.5 927)">
   <stop offset="0" stop-color="#ffffff"/>
   <stop offset="1" stop-color="#000000"/>
  </linearGradient>
  <linearGradient id="LinearGradient_8" gradientUnits="userSpaceOnUse" x1="0" y1="0" x2="0" y2="4.5" gradientTransform="translate(957.75 935.25)">
   <stop offset="0" stop-color="#828282"/>
   <stop offset="1" stop-color="#9a9a9a"/>
  </linearGradient>
  <linearGradient id="LinearGradient_9" gradientUnits="userSpaceOnUse" x1="0" y1="0" x2="-8.25" y2="-37.5" gradientTransform="translate(963.75 958.5)">
   <stop offset="0" stop-color="#848484"/>
   <stop offset="1" stop-color="#353535"/>
  </linearGradient>
  <linearGradient id="LinearGradient_10" gradientUnits="userSpaceOnUse" x1="0" y1="0" x2="-3" y2="-12.75" gradientTransform="translate(866.25 1824)">
   <stop offset="0" stop-color="#0067af"/>
   <stop offset="1" stop-color="#003356"/>
  </linearGradient>
 </defs>
 <g id="Document" fill="none" stroke="black" font-family="Times New Roman" font-size="16" transform="scale(1 -1)">
  <g id="Spread" transform="translate(0 -2334)">
   <g id="icons">
    <g id="Group" stroke="none">
     <rect x="938.25" y="924.751" width="24" height="23.999" stroke-width="0.773" stroke-linecap="round" stroke-linejoin="miter" stroke-miterlimit="79.8403193612775"/>
     <path d="M 938.249,932.249 L 938.249,940.5 C 938.249,942.983 938.764,943.499 941.248,943.499 L 958.501,943.499 C 960.984,943.499 961.5,942.983 961.5,940.5 L 961.5,932.249 C 961.5,929.765 960.984,929.25 958.501,929.25 L 941.248,929.25 C 938.764,929.25 938.249,929.765 938.249,932.249 Z" stroke-opacity="0.352941" stroke-width="0.5" fill="#000000" fill-rule="evenodd" marker-start="none" marker-end="none" stroke-miterlimit="79.8403193612775" fill-opacity="0.352941"/>
     <path d="M 938.999,932.999 L 938.999,941.25 C 938.999,943.733 939.514,944.249 941.998,944.249 L 959.251,944.249 C 961.734,944.249 962.25,943.733 962.25,941.25 L 962.25,932.999 C 962.25,930.515 961.734,930 959.251,930 L 941.998,930 C 939.514,930 938.999,930.515 938.999,932.999 Z M 960.001,934.99 L 960.001,940.759 C 960.001,941.857 959.857,941.251 958.759,941.251 L 942.49,941.251 C 941.391,941.251 941.998,941.857 941.998,940.759 L 941.998,934.99 C 941.998,933.891 941.391,934.498 942.49,934.498 L 958.759,931.498 C 959.857,931.498 960.001,933.891 960.001,934.99 Z" stroke-opacity="0.352941" stroke-width="0.5" fill="#000000" fill-rule="evenodd" marker-start="none" marker-end="none" stroke-miterlimit="79.8403193612775" fill-opacity="0.352941"/>
     <path d="M 947.282,930.75 L 950.608,943.499 L 959.251,943.499 C 961.187,943.306 961.355,943.108 961.5,941.25 L 961.5,932.999 C 961.391,931.06 961.229,930.858 959.251,930.75 L 947.282,930.75 Z" stroke-linejoin="miter" marker-start="none" marker-end="none" fill="url(#LinearGradient)"/>
     <path d="M 939.749,932.999 L 939.749,941.25 C 939.749,943.319 939.929,943.499 941.998,943.499 L 952.108,943.499 L 948.782,930.75 L 941.998,930.75 C 940.046,930.843 939.879,931.033 939.749,932.999 Z" stroke-linejoin="miter" marker-start="none" marker-end="none" fill="url(#LinearGradient_1)"/>
     <mask id="TranspMask">
      <rect x="-10%" y="-10%" width="120%" height="120%" fill="url(#LinearGradient_2)" stroke="none"/>
     </mask>
     <path d="M 939.748,932.74 L 939.748,934.24 C 939.748,932.727 939.384,935.561 941.74,934.498 C 946.504,932.348 955.377,932.36 960.259,935.248 C 961.892,936.214 961.501,934.227 961.501,935.74 L 961.501,932.74 C 961.501,931.227 961.022,930.748 959.509,930.748 L 941.74,930.748 C 940.227,930.748 939.748,931.227 939.748,932.74 Z" fill="#ffffff" stroke-linejoin="miter" marker-start="none" marker-end="none" mask="url(#TranspMask)"/>
     <mask id="TranspMask_1">
      <rect x="-10%" y="-10%" width="120%" height="120%" fill="url(#LinearGradient_3)" stroke="none"/>
     </mask>
     <path d="M 939.75,933 L 939.75,934.5 C 939.816,932.135 939.879,934.268 940.5,932.25 C 940.69,931.757 941.178,931.498 942,931.5 L 959.25,931.5 C 960.087,931.454 960.545,931.741 960.75,932.25 C 961.371,934.268 961.434,932.885 961.5,935.25 L 961.5,933 C 961.5,931.256 961.241,930.75 959.25,930.75 L 942,930.75 C 940.036,930.75 939.75,931.289 939.75,933 Z" fill="#ffffff" stroke-width="0.089" stroke-opacity="0.380392" stroke-linejoin="round" stroke-linecap="round" marker-start="none" marker-end="none" stroke-miterlimit="79.8403193612775" mask="url(#TranspMask_1)"/>
     <mask id="TranspMask_2">
      <rect x="-10%" y="-10%" width="120%" height="120%" fill="url(#LinearGradient_4)" stroke="none"/>
     </mask>
     <path d="M 939.75,937.5 C 947.128,935.519 953.876,935.486 961.5,937.5 L 961.528,941.492 C 961.238,942.888 961.515,943.297 959.25,943.5 L 941.818,943.472 C 939.893,943.472 939.75,943.123 939.75,941.25 L 939.75,937.5 Z" fill="#ffffff" stroke-linejoin="miter" marker-start="none" marker-end="none" mask="url(#TranspMask_2)"/>
     <mask id="TranspMask_3">
      <rect x="-10%" y="-10%" width="120%" height="120%" fill="url(#LinearGradient_5)" stroke="none"/>
     </mask>
     <path d="M 940.5,942.75 L 940.5,942 L 945,941.25 L 955.5,941.25 L 960,942 L 960,942.75 L 940.5,942.75 Z" stroke-linejoin="miter" fill="#ffffff" marker-start="none" marker-end="none" mask="url(#TranspMask_3)"/>
     <mask id="TranspMask_4">
      <rect x="-10%" y="-10%" width="120%" height="120%" fill="url(#LinearGradient_6)" stroke="none"/>
     </mask>
     <path d="M 941.25,933.75 L 941.25,939 L 942.323,939 L 943.422,935.263 L 944.736,938.986 L 945.75,939 L 945.75,933.75 L 945,933.75 L 945,937.5 L 943.657,933.761 L 943.121,933.761 L 942,937.5 L 942,933.75 L 941.25,933.75 Z M 946.5,933.75 L 946.5,939 L 949.5,939 L 949.5,938.25 L 947.25,938.25 L 947.25,936.75 L 948.75,936.75 L 948.75,936 L 947.25,936 L 947.25,934.5 L 949.5,934.5 L 949.5,933.75 L 946.5,933.75 Z M 950.25,935.625 L 950.25,939 L 950.863,939 L 950.25,935.625 Z" fill="#000000" stroke-width="2.939" stroke-linejoin="miter" stroke-linecap="round" marker-start="none" marker-end="none" stroke-miterlimit="79.8403193612775" mask="url(#TranspMask_4)"/>
     <path d="M 941.25,934.5 L 941.25,939.75 L 942.323,939.75 L 943.422,936.013 L 944.736,939.736 L 945.75,939.75 L 945.75,934.5 L 945,934.5 L 945,938.25 L 943.657,934.511 L 943.121,934.511 L 942,938.25 L 942,934.5 L 941.25,934.5 Z M 946.5,934.5 L 946.5,939.75 L 949.5,939.75 L 949.5,939 L 947.25,939 L 947.25,937.5 L 948.75,937.5 L 948.75,936.75 L 947.25,936.75 L 947.25,935.25 L 949.5,935.25 L 949.5,934.5 L 946.5,934.5 Z M 950.25,936.375 L 950.25,939.75 L 950.863,939.75 L 950.25,936.375 Z" fill="#ffffff" stroke-width="2.939" stroke-linejoin="miter" stroke-linecap="round" marker-start="none" marker-end="none" stroke-miterlimit="79.8403193612775"/>
     <mask id="TranspMask_5">
      <rect x="-10%" y="-10%" width="120%" height="120%" fill="url(#LinearGradient_7)" stroke="none"/>
     </mask>
     <path d="M 950.25,933.75 L 950.25,935.625 L 950.863,939 L 951,939 L 951,936.75 L 953.25,936.75 L 953.25,939 L 954,939 L 954,933.75 L 953.25,933.75 L 953.25,936 L 951,936 L 951,933.75 L 950.25,933.75 Z M 955.5,933.75 L 954.75,933.775 L 954.75,939 L 955.5,939 L 955.5,936.75 L 956.272,936.75 C 956.428,938.021 957.367,939 958.5,939 C 959.742,939 960.75,937.824 960.75,936.375 C 960.75,934.926 959.742,933.75 958.5,933.75 C 957.366,933.75 956.428,934.728 956.272,936 L 955.5,936 L 955.5,933.75 Z M 960,936.375 C 960,937.41 959.328,938.25 958.5,938.25 C 957.672,938.25 957,937.41 957,936.375 C 957,935.34 957.672,934.5 958.5,934.5 C 959.328,934.5 960,935.34 960,936.375 Z" fill="#ffffff" stroke-width="2.939" stroke-linejoin="miter" stroke-linecap="round" marker-start="none" marker-end="none" stroke-miterlimit="79.8403193612775" mask="url(#TranspMask_5)"/>
     <path d="M 950.25,934.5 L 950.25,936.375 L 950.863,939.75 L 951,939.75 L 951,937.5 L 953.25,937.5 L 953.25,939.75 L 954,939.75 L 954,934.5 L 953.25,934.5 L 953.25,936.75 L 951,936.75 L 951,934.5 L 950.25,934.5 Z M 955.5,934.5 L 954.75,934.525 L 954.75,939.75 L 955.5,939.75 L 955.5,937.5 L 956.272,937.5 C 956.428,938.771 957.367,939.75 958.5,939.75 C 959.742,939.75 960.75,938.574 960.75,937.125 C 960.75,935.676 959.742,934.5 958.5,934.5 C 957.366,934.5 956.428,935.478 956.272,936.75 L 955.5,936.75 L 955.5,934.5 Z M 960,937.125 C 960,938.16 959.328,939 958.5,939 C 957.672,939 957,938.16 957,937.125 C 957,936.09 957.672,935.25 958.5,935.25 C 959.328,935.25 960,936.09 960,937.125 Z" stroke-width="2.939" stroke-linejoin="miter" stroke-linecap="round" marker-start="none" marker-end="none" stroke-miterlimit="79.8403193612775" fill="url(#LinearGradient_8)"/>
     <path d="M 947.905,928.137 C 947.705,928.189 947.584,928.394 947.637,928.594 L 952.137,945.844 C 952.189,946.044 952.394,946.165 952.594,946.112 C 952.794,946.06 952.915,945.855 952.862,945.655 L 948.362,928.405 C 948.31,928.205 948.105,928.084 947.905,928.137 Z" stroke-width="0.5" fill-rule="evenodd" marker-start="none" marker-end="none" stroke-miterlimit="79.8403193612775" fill="url(#LinearGradient_9)"/>
    </g>
   </g>
  </g>
 </g>
</svg>
